<?xml version="1.0" encoding="UTF-8"?>
<model ref="r:d68f4f84-1d85-46e8-82d0-8dce0ae66944(LogScrapper.constraints)">
  <persistence version="9" />
  <languages>
    <use id="3f4bc5f5-c6c1-4a28-8b10-c83066ffa4a1" name="jetbrains.mps.lang.constraints" version="-1" />
    <devkit ref="fbc25dd2-5da4-483a-8b19-70928e1b62d7(jetbrains.mps.devkit.general-purpose)" />
  </languages>
  <imports>
    <import index="80av" ref="r:304512bc-2ab8-4538-a01c-29a28f4fb5a1(LogScrapper.structure)" />
    <import index="o8zo" ref="r:314576fc-3aee-4386-a0a5-a38348ac317d(jetbrains.mps.scope)" />
    <import index="tpee" ref="r:00000000-0000-4000-0000-011c895902ca(jetbrains.mps.baseLanguage.structure)" />
    <import index="kd05" ref="r:1191a615-0dc2-4cce-b4a2-800ec40bd400(LogScrapper.behavior)" implicit="true" />
  </imports>
  <registry>
    <language id="f3061a53-9226-4cc5-a443-f952ceaf5816" name="jetbrains.mps.baseLanguage">
      <concept id="1154032098014" name="jetbrains.mps.baseLanguage.structure.AbstractLoopStatement" flags="nn" index="2LF5Ji">
        <child id="1154032183016" name="body" index="2LFqv$" />
      </concept>
      <concept id="1197027756228" name="jetbrains.mps.baseLanguage.structure.DotExpression" flags="nn" index="2OqwBi">
        <child id="1197027771414" name="operand" index="2Oq$k0" />
        <child id="1197027833540" name="operation" index="2OqNvi" />
      </concept>
      <concept id="1145552977093" name="jetbrains.mps.baseLanguage.structure.GenericNewExpression" flags="nn" index="2ShNRf">
        <child id="1145553007750" name="creator" index="2ShVmc" />
      </concept>
      <concept id="1137021947720" name="jetbrains.mps.baseLanguage.structure.ConceptFunction" flags="in" index="2VMwT0">
        <child id="1137022507850" name="body" index="2VODD2" />
      </concept>
      <concept id="1081236700937" name="jetbrains.mps.baseLanguage.structure.StaticMethodCall" flags="nn" index="2YIFZM">
        <reference id="1144433194310" name="classConcept" index="1Pybhc" />
      </concept>
      <concept id="1070534058343" name="jetbrains.mps.baseLanguage.structure.NullLiteral" flags="nn" index="10Nm6u" />
      <concept id="1070534934090" name="jetbrains.mps.baseLanguage.structure.CastExpression" flags="nn" index="10QFUN">
        <child id="1070534934091" name="type" index="10QFUM" />
        <child id="1070534934092" name="expression" index="10QFUP" />
      </concept>
      <concept id="1068431474542" name="jetbrains.mps.baseLanguage.structure.VariableDeclaration" flags="ng" index="33uBYm">
        <child id="1068431790190" name="initializer" index="33vP2m" />
      </concept>
      <concept id="1068498886296" name="jetbrains.mps.baseLanguage.structure.VariableReference" flags="nn" index="37vLTw">
        <reference id="1068581517664" name="variableDeclaration" index="3cqZAo" />
      </concept>
      <concept id="4972933694980447171" name="jetbrains.mps.baseLanguage.structure.BaseVariableDeclaration" flags="ng" index="19Szcq">
        <child id="5680397130376446158" name="type" index="1tU5fm" />
      </concept>
      <concept id="1068580123155" name="jetbrains.mps.baseLanguage.structure.ExpressionStatement" flags="nn" index="3clFbF">
        <child id="1068580123156" name="expression" index="3clFbG" />
      </concept>
      <concept id="1068580123159" name="jetbrains.mps.baseLanguage.structure.IfStatement" flags="nn" index="3clFbJ">
        <child id="1068580123160" name="condition" index="3clFbw" />
        <child id="1068580123161" name="ifTrue" index="3clFbx" />
      </concept>
      <concept id="1068580123136" name="jetbrains.mps.baseLanguage.structure.StatementList" flags="sn" stub="5293379017992965193" index="3clFbS">
        <child id="1068581517665" name="statement" index="3cqZAp" />
      </concept>
      <concept id="1068581242878" name="jetbrains.mps.baseLanguage.structure.ReturnStatement" flags="nn" index="3cpWs6">
        <child id="1068581517676" name="expression" index="3cqZAk" />
      </concept>
      <concept id="1068581242864" name="jetbrains.mps.baseLanguage.structure.LocalVariableDeclarationStatement" flags="nn" index="3cpWs8">
        <child id="1068581242865" name="localVariableDeclaration" index="3cpWs9" />
      </concept>
      <concept id="1068581242863" name="jetbrains.mps.baseLanguage.structure.LocalVariableDeclaration" flags="nr" index="3cpWsn" />
      <concept id="1081516740877" name="jetbrains.mps.baseLanguage.structure.NotExpression" flags="nn" index="3fqX7Q">
        <child id="1081516765348" name="expression" index="3fr31v" />
      </concept>
      <concept id="1204053956946" name="jetbrains.mps.baseLanguage.structure.IMethodCall" flags="ng" index="1ndlxa">
        <reference id="1068499141037" name="baseMethodDeclaration" index="37wK5l" />
        <child id="1068499141038" name="actualArgument" index="37wK5m" />
      </concept>
    </language>
    <language id="3f4bc5f5-c6c1-4a28-8b10-c83066ffa4a1" name="jetbrains.mps.lang.constraints">
      <concept id="8966504967485224688" name="jetbrains.mps.lang.constraints.structure.ConstraintFunctionParameter_contextNode" flags="nn" index="2rP1CM" />
      <concept id="5676632058862809931" name="jetbrains.mps.lang.constraints.structure.ConstraintFunction_ReferentSearchScope_Scope" flags="in" index="13QW63" />
      <concept id="8401916545537438642" name="jetbrains.mps.lang.constraints.structure.InheritedNodeScopeFactory" flags="ng" index="1dDu$B">
        <reference id="8401916545537438643" name="kind" index="1dDu$A" />
      </concept>
      <concept id="1163200368514" name="jetbrains.mps.lang.constraints.structure.ConstraintFunction_ReferentSetHandler" flags="in" index="3k9gUc" />
      <concept id="1163200647017" name="jetbrains.mps.lang.constraints.structure.ConstraintFunctionParameter_referenceNode" flags="nn" index="3kakTB" />
      <concept id="1159285995602" name="jetbrains.mps.lang.constraints.structure.NodeDefaultSearchScope" flags="ng" index="3EP7_v">
        <child id="1159286114227" name="searchScopeFactory" index="3EP$qY" />
      </concept>
      <concept id="1213093968558" name="jetbrains.mps.lang.constraints.structure.ConceptConstraints" flags="ng" index="1M2fIO">
        <reference id="1213093996982" name="concept" index="1M2myG" />
        <child id="1213100494875" name="referent" index="1Mr941" />
        <child id="1213101058038" name="defaultScope" index="1MtirG" />
      </concept>
      <concept id="1148687176410" name="jetbrains.mps.lang.constraints.structure.NodeReferentConstraint" flags="ng" index="1N5Pfh">
        <reference id="1148687202698" name="applicableLink" index="1N5Vy1" />
        <child id="1163203787401" name="referentSetHandler" index="3kmjI7" />
        <child id="1148687345559" name="searchScopeFactory" index="1N6uqs" />
      </concept>
    </language>
    <language id="7866978e-a0f0-4cc7-81bc-4d213d9375e1" name="jetbrains.mps.lang.smodel">
      <concept id="1226359078165" name="jetbrains.mps.lang.smodel.structure.LinkRefExpression" flags="nn" index="28GBK8">
        <reference id="1226359078166" name="conceptDeclaration" index="28GBKb" />
        <reference id="1226359192215" name="linkDeclaration" index="28H3Ia" />
      </concept>
      <concept id="1177026924588" name="jetbrains.mps.lang.smodel.structure.RefConcept_Reference" flags="nn" index="chp4Y">
        <reference id="1177026940964" name="conceptDeclaration" index="cht4Q" />
      </concept>
      <concept id="1138411891628" name="jetbrains.mps.lang.smodel.structure.SNodeOperation" flags="nn" index="eCIE_">
        <child id="1144104376918" name="parameter" index="1xVPHs" />
      </concept>
      <concept id="1179409122411" name="jetbrains.mps.lang.smodel.structure.Node_ConceptMethodCall" flags="nn" index="2qgKlT" />
      <concept id="1145383075378" name="jetbrains.mps.lang.smodel.structure.SNodeListType" flags="in" index="2I9FWS">
        <reference id="1145383142433" name="elementConcept" index="2I9WkF" />
      </concept>
      <concept id="1145567426890" name="jetbrains.mps.lang.smodel.structure.SNodeListCreator" flags="nn" index="2T8Vx0">
        <child id="1145567471833" name="createdType" index="2T96Bj" />
      </concept>
      <concept id="1171407110247" name="jetbrains.mps.lang.smodel.structure.Node_GetAncestorOperation" flags="nn" index="2Xjw5R" />
      <concept id="1139613262185" name="jetbrains.mps.lang.smodel.structure.Node_GetParentOperation" flags="nn" index="1mfA1w" />
      <concept id="1139621453865" name="jetbrains.mps.lang.smodel.structure.Node_IsInstanceOfOperation" flags="nn" index="1mIQ4w">
        <child id="1177027386292" name="conceptArgument" index="cj9EA" />
      </concept>
      <concept id="1144101972840" name="jetbrains.mps.lang.smodel.structure.OperationParm_Concept" flags="ng" index="1xMEDy">
        <child id="1207343664468" name="conceptArgument" index="ri$Ld" />
      </concept>
      <concept id="1140137987495" name="jetbrains.mps.lang.smodel.structure.SNodeTypeCastExpression" flags="nn" index="1PxgMI">
        <property id="1238684351431" name="asCast" index="1BlNFB" />
        <reference id="1140138128738" name="concept" index="1PxNhF" />
        <child id="1140138123956" name="leftExpression" index="1PxMeX" />
      </concept>
      <concept id="1138055754698" name="jetbrains.mps.lang.smodel.structure.SNodeType" flags="in" index="3Tqbb2">
        <reference id="1138405853777" name="concept" index="ehGHo" />
      </concept>
      <concept id="1138056143562" name="jetbrains.mps.lang.smodel.structure.SLinkAccess" flags="nn" index="3TrEf2">
        <reference id="1138056516764" name="link" index="3Tt5mk" />
      </concept>
      <concept id="1138056282393" name="jetbrains.mps.lang.smodel.structure.SLinkListAccess" flags="nn" index="3Tsc0h">
        <reference id="1138056546658" name="link" index="3TtcxE" />
      </concept>
    </language>
    <language id="ceab5195-25ea-4f22-9b92-103b95ca8c0c" name="jetbrains.mps.lang.core">
      <concept id="1169194658468" name="jetbrains.mps.lang.core.structure.INamedConcept" flags="ng" index="TrEIO">
        <property id="1169194664001" name="name" index="TrG5h" />
      </concept>
    </language>
    <language id="83888646-71ce-4f1c-9c53-c54016f6ad4f" name="jetbrains.mps.baseLanguage.collections">
      <concept id="540871147943773365" name="jetbrains.mps.baseLanguage.collections.structure.SingleArgumentSequenceOperation" flags="nn" index="25WWJ4">
        <child id="540871147943773366" name="argument" index="25WWJ7" />
      </concept>
      <concept id="1151689724996" name="jetbrains.mps.baseLanguage.collections.structure.SequenceType" flags="in" index="A3Dl8">
        <child id="1151689745422" name="elementType" index="A3Ik2" />
      </concept>
      <concept id="1153943597977" name="jetbrains.mps.baseLanguage.collections.structure.ForEachStatement" flags="nn" index="2Gpval">
        <child id="1153944400369" name="variable" index="2Gsz3X" />
        <child id="1153944424730" name="inputSequence" index="2GsD0m" />
      </concept>
      <concept id="1153944193378" name="jetbrains.mps.baseLanguage.collections.structure.ForEachVariable" flags="nr" index="2GrKxI" />
      <concept id="1153944233411" name="jetbrains.mps.baseLanguage.collections.structure.ForEachVariableReference" flags="nn" index="2GrUjf">
        <reference id="1153944258490" name="variable" index="2Gs0qQ" />
      </concept>
      <concept id="1160612413312" name="jetbrains.mps.baseLanguage.collections.structure.AddElementOperation" flags="nn" index="TSZUe" />
      <concept id="4611582986551314327" name="jetbrains.mps.baseLanguage.collections.structure.OfTypeOperation" flags="nn" index="UnYns">
        <child id="4611582986551314344" name="requestedType" index="UnYnz" />
      </concept>
    </language>
  </registry>
  <node concept="1M2fIO" id="7HoD$xmMeLw">
    <ref role="1M2myG" to="80av:_IX99AD3Ey" resolve="CSVExport" />
  </node>
  <node concept="1M2fIO" id="7HoD$xmMm4T">
    <ref role="1M2myG" to="80av:7HoD$xmMern" resolve="GroupItemReference" />
    <node concept="1N5Pfh" id="7HoD$xmMm5l" role="1Mr941">
      <ref role="1N5Vy1" to="80av:7HoD$xmMerN" />
      <node concept="13QW63" id="7HoD$xmMvV0" role="1N6uqs">
        <node concept="3clFbS" id="7HoD$xmMvV1" role="2VODD2">
          <node concept="3clFbJ" id="7HoD$xmMEAA" role="3cqZAp">
            <node concept="3clFbS" id="7HoD$xmMEAC" role="3clFbx">
              <node concept="3cpWs6" id="7HoD$xmMF6S" role="3cqZAp">
                <node concept="10Nm6u" id="7HoD$xmMFib" role="3cqZAk" />
              </node>
            </node>
            <node concept="3fqX7Q" id="7HoD$xmMESP" role="3clFbw">
              <node concept="2OqwBi" id="7HoD$xmMESR" role="3fr31v">
                <node concept="2rP1CM" id="7HoD$xmMESS" role="2Oq$k0" />
                <node concept="1mIQ4w" id="7HoD$xmMEST" role="2OqNvi">
                  <node concept="chp4Y" id="7HoD$xmMESU" role="cj9EA">
                    <ref role="cht4Q" to="80av:7HoD$xmJ9nh" resolve="Exporter" />
                  </node>
                </node>
              </node>
            </node>
          </node>
          <node concept="3clFbF" id="7HoD$xmMxno" role="3cqZAp">
            <node concept="2YIFZM" id="7HoD$xmMxps" role="3clFbG">
              <ref role="37wK5l" to="o8zo:379IfaV6Tee" resolve="forNamedElements" />
              <ref role="1Pybhc" to="o8zo:7ipADkTevLm" resolve="SimpleRoleScope" />
              <node concept="2OqwBi" id="7HoD$xmMCHB" role="37wK5m">
                <node concept="2OqwBi" id="7HoD$xmM_oQ" role="2Oq$k0">
                  <node concept="1PxgMI" id="7HoD$xmM_jG" role="2Oq$k0">
                    <ref role="1PxNhF" to="80av:7HoD$xmJ9nh" resolve="Exporter" />
                    <node concept="2rP1CM" id="7HoD$xmMxrQ" role="1PxMeX" />
                  </node>
                  <node concept="3TrEf2" id="7HoD$xmM_zo" role="2OqNvi">
                    <ref role="3Tt5mk" to="80av:_IX99AD3F_" />
                  </node>
                </node>
                <node concept="3TrEf2" id="7HoD$xmMCTz" role="2OqNvi">
                  <ref role="3Tt5mk" to="80av:1Zzbrikhzf4" />
                </node>
              </node>
              <node concept="28GBK8" id="7HoD$xmMyba" role="37wK5m">
                <ref role="28H3Ia" to="80av:1Zzbrikhxyq" />
                <ref role="28GBKb" to="80av:1ZzbrikhxxY" resolve="Pattern" />
              </node>
            </node>
          </node>
        </node>
      </node>
    </node>
  </node>
  <node concept="1M2fIO" id="2ySUprX9XsV">
    <ref role="1M2myG" to="80av:_IX99A_ZKL" resolve="ItemIdentifier" />
    <node concept="1N5Pfh" id="2ySUprX9XxY" role="1Mr941">
      <ref role="1N5Vy1" to="80av:_IX99AAwGa" />
      <node concept="13QW63" id="2ySUprXaix$" role="1N6uqs">
        <node concept="3clFbS" id="2ySUprXaixA" role="2VODD2">
          <node concept="3clFbJ" id="2ySUprXal1Q" role="3cqZAp">
            <node concept="3clFbS" id="2ySUprXal1S" role="3clFbx">
              <node concept="3cpWs6" id="2ySUprXallz" role="3cqZAp">
                <node concept="10Nm6u" id="2ySUprXaloD" role="3cqZAk" />
              </node>
            </node>
            <node concept="3fqX7Q" id="2ySUprXalj0" role="3clFbw">
              <node concept="2OqwBi" id="2ySUprXalj2" role="3fr31v">
                <node concept="2rP1CM" id="2ySUprXalj3" role="2Oq$k0" />
                <node concept="1mIQ4w" id="2ySUprXalj4" role="2OqNvi">
                  <node concept="chp4Y" id="2ySUprXalj5" role="cj9EA">
                    <ref role="cht4Q" to="80av:1ZzbrikhxxY" resolve="Pattern" />
                  </node>
                </node>
              </node>
            </node>
          </node>
          <node concept="3clFbF" id="2ySUprXaiEW" role="3cqZAp">
            <node concept="2YIFZM" id="2ySUprXaiH0" role="3clFbG">
              <ref role="37wK5l" to="o8zo:379IfaV6Tee" resolve="forNamedElements" />
              <ref role="1Pybhc" to="o8zo:7ipADkTevLm" resolve="SimpleRoleScope" />
              <node concept="1PxgMI" id="2ySUprXaj1E" role="37wK5m">
                <ref role="1PxNhF" to="80av:1ZzbrikhxxY" resolve="Pattern" />
                <node concept="2rP1CM" id="2ySUprXaiO9" role="1PxMeX" />
              </node>
              <node concept="28GBK8" id="2ySUprXajCo" role="37wK5m">
                <ref role="28GBKb" to="80av:1ZzbrikhxxY" resolve="Pattern" />
                <ref role="28H3Ia" to="80av:1Zzbrikhxyq" />
              </node>
            </node>
          </node>
        </node>
      </node>
    </node>
  </node>
  <node concept="1M2fIO" id="3SMMV5ZR97Z">
    <ref role="1M2myG" to="80av:1ZzbrikhxxY" resolve="Pattern" />
  </node>
  <node concept="1M2fIO" id="3SMMV5ZRB_P">
    <ref role="1M2myG" to="80av:66tNEy7MCIO" resolve="Member" />
    <node concept="3EP7_v" id="3SMMV601Otm" role="1MtirG">
      <node concept="1dDu$B" id="3SMMV601Otq" role="3EP$qY">
        <ref role="1dDu$A" to="80av:66tNEy7Mgmx" resolve="LoggedItem" />
      </node>
    </node>
  </node>
  <node concept="1M2fIO" id="3SMMV601R8_">
    <ref role="1M2myG" to="80av:66tNEy7Mgmx" resolve="LoggedItem" />
  </node>
  <node concept="1M2fIO" id="bwQnMm_bg7">
    <ref role="1M2myG" to="80av:bwQnMm_b8l" resolve="VariableRefExtension" />
    <node concept="1N5Pfh" id="bwQnMm_bg8" role="1Mr941">
      <ref role="1N5Vy1" to="tpee:fzcqZ_w" />
      <node concept="13QW63" id="bwQnMm_bga" role="1N6uqs">
        <node concept="3clFbS" id="bwQnMm_bgb" role="2VODD2">
          <node concept="3cpWs8" id="bwQnMm_bg$" role="3cqZAp">
            <node concept="3cpWsn" id="bwQnMm_bgB" role="3cpWs9">
              <property role="TrG5h" value="fieldDeclarations" />
              <node concept="2I9FWS" id="bwQnMm_bgz" role="1tU5fm">
                <ref role="2I9WkF" to="tpee:fz12cDC" resolve="FieldDeclaration" />
              </node>
              <node concept="2ShNRf" id="bwQnMm_biI" role="33vP2m">
                <node concept="2T8Vx0" id="bwQnMm_bi$" role="2ShVmc">
                  <node concept="2I9FWS" id="bwQnMm_bi_" role="2T96Bj">
                    <ref role="2I9WkF" to="tpee:fz12cDC" resolve="FieldDeclaration" />
                  </node>
                </node>
              </node>
            </node>
          </node>
          <node concept="3cpWs8" id="bwQnMm_el8" role="3cqZAp">
            <node concept="3cpWsn" id="bwQnMm_el9" role="3cpWs9">
              <property role="TrG5h" value="seq" />
              <node concept="A3Dl8" id="bwQnMm_el4" role="1tU5fm">
                <node concept="3Tqbb2" id="bwQnMm_el7" role="A3Ik2">
                  <ref role="ehGHo" to="80av:66tNEy7MCIO" resolve="Member" />
                </node>
              </node>
              <node concept="2OqwBi" id="bwQnMm_ela" role="33vP2m">
                <node concept="2OqwBi" id="bwQnMm_elb" role="2Oq$k0">
                  <node concept="2OqwBi" id="bwQnMm_elc" role="2Oq$k0">
                    <node concept="2OqwBi" id="bwQnMm_eld" role="2Oq$k0">
                      <node concept="2rP1CM" id="bwQnMm_ele" role="2Oq$k0" />
                      <node concept="2Xjw5R" id="bwQnMm_elf" role="2OqNvi">
                        <node concept="1xMEDy" id="bwQnMm_elg" role="1xVPHs">
                          <node concept="chp4Y" id="bwQnMm_elh" role="ri$Ld">
                            <ref role="cht4Q" to="80av:66tNEy7Mgmx" resolve="LoggedItem" />
                          </node>
                        </node>
                      </node>
                    </node>
                    <node concept="3TrEf2" id="bwQnMm_eli" role="2OqNvi">
                      <ref role="3Tt5mk" to="80av:1Zzbrikhzf4" />
                    </node>
                  </node>
                  <node concept="3Tsc0h" id="bwQnMm_elj" role="2OqNvi">
                    <ref role="3TtcxE" to="80av:1Zzbrikhxyq" />
                  </node>
                </node>
                <node concept="UnYns" id="bwQnMm_elk" role="2OqNvi">
                  <node concept="3Tqbb2" id="bwQnMm_ell" role="UnYnz">
                    <ref role="ehGHo" to="80av:66tNEy7MCIO" resolve="Member" />
                  </node>
                </node>
              </node>
            </node>
          </node>
          <node concept="2Gpval" id="bwQnMm_eug" role="3cqZAp">
            <node concept="2GrKxI" id="bwQnMm_euj" role="2Gsz3X">
              <property role="TrG5h" value="nde" />
            </node>
            <node concept="3clFbS" id="bwQnMm_eum" role="2LFqv$">
              <node concept="3clFbF" id="bwQnMm_eyC" role="3cqZAp">
                <node concept="2OqwBi" id="bwQnMm_gdL" role="3clFbG">
                  <node concept="37vLTw" id="bwQnMm_eyB" role="2Oq$k0">
                    <ref role="3cqZAo" node="bwQnMm_bgB" resolve="fieldDeclarations" />
                  </node>
                  <node concept="TSZUe" id="bwQnMm_r66" role="2OqNvi">
                    <node concept="1PxgMI" id="bwQnMm_suA" role="25WWJ7">
                      <property role="1BlNFB" value="true" />
                      <ref role="1PxNhF" to="tpee:fz12cDC" resolve="FieldDeclaration" />
                      <node concept="2GrUjf" id="bwQnMm_rlK" role="1PxMeX">
                        <ref role="2Gs0qQ" node="bwQnMm_euj" resolve="nde" />
                      </node>
                    </node>
                  </node>
                </node>
              </node>
            </node>
            <node concept="37vLTw" id="bwQnMm_exy" role="2GsD0m">
              <ref role="3cqZAo" node="bwQnMm_el9" resolve="seq" />
            </node>
          </node>
          <node concept="3clFbF" id="bwQnMm_tnR" role="3cqZAp">
            <node concept="2YIFZM" id="bwQnMm_tKm" role="3clFbG">
              <ref role="37wK5l" to="o8zo:4IP40Bi3eAf" resolve="forNamedElements" />
              <ref role="1Pybhc" to="o8zo:4IP40Bi3e_R" resolve="ListScope" />
              <node concept="37vLTw" id="bwQnMm_u2C" role="37wK5m">
                <ref role="3cqZAo" node="bwQnMm_bgB" resolve="fieldDeclarations" />
              </node>
            </node>
          </node>
        </node>
      </node>
    </node>
  </node>
  <node concept="1M2fIO" id="74LOPGM7dEW">
    <ref role="1M2myG" to="80av:74LOPGM6KOt" resolve="instanceMethodDeclarationEx" />
  </node>
  <node concept="1M2fIO" id="4Iz7iG3Khj1">
    <ref role="1M2myG" to="80av:4Iz7iG3JYy5" resolve="instanceMethodDeclarationExReference" />
    <node concept="1N5Pfh" id="4Iz7iG3Khko" role="1Mr941">
      <ref role="1N5Vy1" to="80av:4Iz7iG3KgXr" />
      <node concept="3k9gUc" id="4Iz7iG3Khkq" role="3kmjI7">
        <node concept="3clFbS" id="4Iz7iG3Khkr" role="2VODD2">
          <node concept="3clFbF" id="4Iz7iG3Ktk_" role="3cqZAp">
            <node concept="2OqwBi" id="4Iz7iG3KtlG" role="3clFbG">
              <node concept="3kakTB" id="4Iz7iG3Ktk$" role="2Oq$k0" />
              <node concept="2qgKlT" id="4Iz7iG3Ktt6" role="2OqNvi">
                <ref role="37wK5l" to="kd05:4Iz7iG3Kipg" resolve="setReturnType" />
                <node concept="10QFUN" id="4Iz7iG3NLY7" role="37wK5m">
                  <node concept="2OqwBi" id="4Iz7iG3NLdG" role="10QFUP">
                    <node concept="1PxgMI" id="4Iz7iG3NL2l" role="2Oq$k0">
                      <ref role="1PxNhF" to="80av:66tNEy7MCIO" resolve="Member" />
                      <node concept="2OqwBi" id="4Iz7iG3NKKs" role="1PxMeX">
                        <node concept="3kakTB" id="4Iz7iG3NKIQ" role="2Oq$k0" />
                        <node concept="1mfA1w" id="4Iz7iG3NKSI" role="2OqNvi" />
                      </node>
                    </node>
                    <node concept="3TrEf2" id="4Iz7iG3NLSa" role="2OqNvi">
                      <ref role="3Tt5mk" to="tpee:4VkOLwjf83e" />
                    </node>
                  </node>
                  <node concept="3Tqbb2" id="4Iz7iG3NLY8" role="10QFUM">
                    <ref role="ehGHo" to="tpee:g7uibYu" resolve="ClassifierType" />
                  </node>
                </node>
              </node>
            </node>
          </node>
        </node>
      </node>
    </node>
  </node>
</model>

