<?xml version="1.0" encoding="UTF-8"?>
<model ref="r:0f5a1335-e547-4266-a9b1-41f28dbe8973(LogScrapper.editor)">
  <persistence version="9" />
  <languages>
    <use id="18bc6592-03a6-4e29-a83a-7ff23bde13ba" name="jetbrains.mps.lang.editor" version="-1" />
    <use id="63650c59-16c8-498a-99c8-005c7ee9515d" name="jetbrains.mps.lang.access" version="0" />
    <use id="f3061a53-9226-4cc5-a443-f952ceaf5816" name="jetbrains.mps.baseLanguage" version="-1" />
    <devkit ref="fbc25dd2-5da4-483a-8b19-70928e1b62d7(jetbrains.mps.devkit.general-purpose)" />
  </languages>
  <imports>
    <import index="dbrf" ref="6354ebe7-c22a-4a0f-ac54-50b52ab9b065/f:java_stub#6354ebe7-c22a-4a0f-ac54-50b52ab9b065#javax.swing(JDK/javax.swing@java_stub)" />
    <import index="8q6x" ref="6354ebe7-c22a-4a0f-ac54-50b52ab9b065/f:java_stub#6354ebe7-c22a-4a0f-ac54-50b52ab9b065#java.awt.event(JDK/java.awt.event@java_stub)" />
    <import index="tpck" ref="r:00000000-0000-4000-0000-011c89590288(jetbrains.mps.lang.core.structure)" />
    <import index="tpee" ref="r:00000000-0000-4000-0000-011c895902ca(jetbrains.mps.baseLanguage.structure)" />
    <import index="e2lb" ref="6354ebe7-c22a-4a0f-ac54-50b52ab9b065/f:java_stub#6354ebe7-c22a-4a0f-ac54-50b52ab9b065#java.lang(JDK/java.lang@java_stub)" />
    <import index="80av" ref="r:304512bc-2ab8-4538-a01c-29a28f4fb5a1(LogScrapper.structure)" implicit="true" />
    <import index="kd05" ref="r:1191a615-0dc2-4cce-b4a2-800ec40bd400(LogScrapper.behavior)" implicit="true" />
    <import index="fxg7" ref="6354ebe7-c22a-4a0f-ac54-50b52ab9b065/f:java_stub#6354ebe7-c22a-4a0f-ac54-50b52ab9b065#java.io(JDK/java.io@java_stub)" implicit="true" />
    <import index="tpen" ref="r:00000000-0000-4000-0000-011c895902c3(jetbrains.mps.baseLanguage.editor)" implicit="true" />
  </imports>
  <registry>
    <language id="18bc6592-03a6-4e29-a83a-7ff23bde13ba" name="jetbrains.mps.lang.editor">
      <concept id="1071666914219" name="jetbrains.mps.lang.editor.structure.ConceptEditorDeclaration" flags="ig" index="24kQdi">
        <child id="1078153129734" name="inspectedCellModel" index="6VMZX" />
        <child id="2597348684684069742" name="contextHints" index="CpUAK" />
      </concept>
      <concept id="6822301196700715228" name="jetbrains.mps.lang.editor.structure.ConceptEditorHintDeclarationReference" flags="ig" index="2aJ2om">
        <reference id="5944657839026714445" name="hint" index="2$4xQ3" />
      </concept>
      <concept id="1140524381322" name="jetbrains.mps.lang.editor.structure.CellModel_ListWithRole" flags="ng" index="2czfm3">
        <child id="1140524464360" name="cellLayout" index="2czzBx" />
      </concept>
      <concept id="1106270549637" name="jetbrains.mps.lang.editor.structure.CellLayout_Horizontal" flags="nn" index="2iRfu4" />
      <concept id="1106270571710" name="jetbrains.mps.lang.editor.structure.CellLayout_Vertical" flags="nn" index="2iRkQZ" />
      <concept id="1237303669825" name="jetbrains.mps.lang.editor.structure.CellLayout_Indent" flags="nn" index="l2Vlx" />
      <concept id="1142886221719" name="jetbrains.mps.lang.editor.structure.QueryFunction_NodeCondition" flags="in" index="pkWqt" />
      <concept id="1142886811589" name="jetbrains.mps.lang.editor.structure.ConceptFunctionParameter_node" flags="nn" index="pncrf" />
      <concept id="1080736578640" name="jetbrains.mps.lang.editor.structure.BaseEditorComponent" flags="ig" index="2wURMF">
        <child id="1080736633877" name="cellModel" index="2wV5jI" />
      </concept>
      <concept id="5944657839000868711" name="jetbrains.mps.lang.editor.structure.ConceptEditorContextHints" flags="ig" index="2ABfQD">
        <child id="5944657839000877563" name="hints" index="2ABdcP" />
      </concept>
      <concept id="5944657839003601246" name="jetbrains.mps.lang.editor.structure.ConceptEditorHintDeclaration" flags="ig" index="2BsEeg">
        <property id="168363875802087287" name="showInUI" index="2gpH_U" />
        <property id="5944657839012629576" name="presentation" index="2BUmq6" />
      </concept>
      <concept id="1078939183254" name="jetbrains.mps.lang.editor.structure.CellModel_Component" flags="sg" stub="3162947552742194261" index="PMmxH">
        <reference id="1078939183255" name="editorComponent" index="PMmxG" />
      </concept>
      <concept id="1214320119173" name="jetbrains.mps.lang.editor.structure.SideTransformAnchorTagStyleClassItem" flags="ln" index="2V7CMv">
        <property id="1214320119174" name="tag" index="2V7CMs" />
      </concept>
      <concept id="1186403751766" name="jetbrains.mps.lang.editor.structure.FontStyleStyleClassItem" flags="ln" index="Vb9p2" />
      <concept id="1103016434866" name="jetbrains.mps.lang.editor.structure.CellModel_JComponent" flags="sg" stub="8104358048506731196" index="3gTLQM">
        <child id="1176475119347" name="componentProvider" index="3FoqZy" />
      </concept>
      <concept id="1088013125922" name="jetbrains.mps.lang.editor.structure.CellModel_RefCell" flags="sg" stub="730538219795941030" index="1iCGBv">
        <child id="1088186146602" name="editorComponent" index="1sWHZn" />
      </concept>
      <concept id="1088185857835" name="jetbrains.mps.lang.editor.structure.InlineEditorComponent" flags="ig" index="1sVBvm" />
      <concept id="9122903797312246523" name="jetbrains.mps.lang.editor.structure.StyleReference" flags="ng" index="1wgc9g">
        <reference id="9122903797312247166" name="style" index="1wgcnl" />
      </concept>
      <concept id="1139848536355" name="jetbrains.mps.lang.editor.structure.CellModel_WithRole" flags="ng" index="1$h60E">
        <property id="1140017977771" name="readOnly" index="1Intyy" />
        <reference id="1140103550593" name="relationDeclaration" index="1NtTu8" />
      </concept>
      <concept id="1073389214265" name="jetbrains.mps.lang.editor.structure.EditorCellModel" flags="ng" index="3EYTF0">
        <child id="1142887637401" name="renderingCondition" index="pqm2j" />
      </concept>
      <concept id="1073389446423" name="jetbrains.mps.lang.editor.structure.CellModel_Collection" flags="sn" stub="3013115976261988961" index="3EZMnI">
        <child id="1106270802874" name="cellLayout" index="2iSdaV" />
        <child id="1073389446424" name="childCellModel" index="3EZMnx" />
      </concept>
      <concept id="1073389577006" name="jetbrains.mps.lang.editor.structure.CellModel_Constant" flags="sn" stub="3610246225209162225" index="3F0ifn">
        <property id="1073389577007" name="text" index="3F0ifm" />
      </concept>
      <concept id="1073389658414" name="jetbrains.mps.lang.editor.structure.CellModel_Property" flags="sg" stub="730538219796134133" index="3F0A7n" />
      <concept id="1219418625346" name="jetbrains.mps.lang.editor.structure.IStyleContainer" flags="ng" index="3F0Thp">
        <child id="1219418656006" name="styleItem" index="3F10Kt" />
      </concept>
      <concept id="1073389882823" name="jetbrains.mps.lang.editor.structure.CellModel_RefNode" flags="sg" stub="730538219795960754" index="3F1sOY" />
      <concept id="1073390211982" name="jetbrains.mps.lang.editor.structure.CellModel_RefNodeList" flags="sg" stub="2794558372793454595" index="3F2HdR" />
      <concept id="1176474535556" name="jetbrains.mps.lang.editor.structure.QueryFunction_JComponent" flags="in" index="3Fmcul" />
      <concept id="1088612959204" name="jetbrains.mps.lang.editor.structure.CellModel_Alternation" flags="sg" stub="8104358048506729361" index="1QoScp">
        <property id="1088613081987" name="vertical" index="1QpmdY" />
        <child id="1145918517974" name="alternationCondition" index="3e4ffs" />
        <child id="1088612958265" name="ifTrueCellModel" index="1QoS34" />
        <child id="1088612973955" name="ifFalseCellModel" index="1QoVPY" />
      </concept>
      <concept id="1950447826681509042" name="jetbrains.mps.lang.editor.structure.ApplyStyleClass" flags="lg" index="3Xmtl4">
        <child id="1950447826683828796" name="target" index="3XvnJa" />
      </concept>
      <concept id="1166049232041" name="jetbrains.mps.lang.editor.structure.AbstractComponent" flags="ng" index="1XWOmA">
        <reference id="1166049300910" name="conceptDeclaration" index="1XX52x" />
      </concept>
    </language>
    <language id="f3061a53-9226-4cc5-a443-f952ceaf5816" name="jetbrains.mps.baseLanguage">
      <concept id="1215693861676" name="jetbrains.mps.baseLanguage.structure.BaseAssignmentExpression" flags="nn" index="d038R">
        <child id="1068498886297" name="rValue" index="37vLTx" />
        <child id="1068498886295" name="lValue" index="37vLTJ" />
      </concept>
      <concept id="1202948039474" name="jetbrains.mps.baseLanguage.structure.InstanceMethodCallOperation" flags="nn" index="liA8E" />
      <concept id="1224848483129" name="jetbrains.mps.baseLanguage.structure.IBLDeprecatable" flags="ng" index="IEa8$">
        <property id="1224848525476" name="isDeprecated" index="IEkAT" />
      </concept>
      <concept id="1197027756228" name="jetbrains.mps.baseLanguage.structure.DotExpression" flags="nn" index="2OqwBi">
        <child id="1197027771414" name="operand" index="2Oq$k0" />
        <child id="1197027833540" name="operation" index="2OqNvi" />
      </concept>
      <concept id="1145552977093" name="jetbrains.mps.baseLanguage.structure.GenericNewExpression" flags="nn" index="2ShNRf">
        <child id="1145553007750" name="creator" index="2ShVmc" />
      </concept>
      <concept id="1137021947720" name="jetbrains.mps.baseLanguage.structure.ConceptFunction" flags="in" index="2VMwT0">
        <child id="1137022507850" name="body" index="2VODD2" />
      </concept>
      <concept id="1070475926800" name="jetbrains.mps.baseLanguage.structure.StringLiteral" flags="nn" index="Xl_RD">
        <property id="1070475926801" name="value" index="Xl_RC" />
      </concept>
      <concept id="1182160077978" name="jetbrains.mps.baseLanguage.structure.AnonymousClassCreator" flags="nn" index="YeOm9">
        <child id="1182160096073" name="cls" index="YeSDq" />
      </concept>
      <concept id="1070533707846" name="jetbrains.mps.baseLanguage.structure.StaticFieldReference" flags="nn" index="10M0yZ">
        <reference id="1144433057691" name="classifier" index="1PxDUh" />
      </concept>
      <concept id="1070534058343" name="jetbrains.mps.baseLanguage.structure.NullLiteral" flags="nn" index="10Nm6u" />
      <concept id="1070534370425" name="jetbrains.mps.baseLanguage.structure.IntegerType" flags="in" index="10Oyi0" />
      <concept id="1068431474542" name="jetbrains.mps.baseLanguage.structure.VariableDeclaration" flags="ng" index="33uBYm">
        <child id="1068431790190" name="initializer" index="33vP2m" />
      </concept>
      <concept id="1068498886296" name="jetbrains.mps.baseLanguage.structure.VariableReference" flags="nn" index="37vLTw">
        <reference id="1068581517664" name="variableDeclaration" index="3cqZAo" />
      </concept>
      <concept id="1068498886292" name="jetbrains.mps.baseLanguage.structure.ParameterDeclaration" flags="ir" index="37vLTG" />
      <concept id="1068498886294" name="jetbrains.mps.baseLanguage.structure.AssignmentExpression" flags="nn" index="37vLTI" />
      <concept id="4972933694980447171" name="jetbrains.mps.baseLanguage.structure.BaseVariableDeclaration" flags="ng" index="19Szcq">
        <child id="5680397130376446158" name="type" index="1tU5fm" />
      </concept>
      <concept id="1068580123132" name="jetbrains.mps.baseLanguage.structure.BaseMethodDeclaration" flags="ng" index="3clF44">
        <property id="1181808852946" name="isFinal" index="DiZV1" />
        <child id="1068580123133" name="returnType" index="3clF45" />
        <child id="1068580123134" name="parameter" index="3clF46" />
        <child id="1068580123135" name="body" index="3clF47" />
      </concept>
      <concept id="1068580123165" name="jetbrains.mps.baseLanguage.structure.InstanceMethodDeclaration" flags="ig" index="3clFb_">
        <property id="1178608670077" name="isAbstract" index="1EzhhJ" />
      </concept>
      <concept id="1068580123152" name="jetbrains.mps.baseLanguage.structure.EqualsExpression" flags="nn" index="3clFbC" />
      <concept id="1068580123155" name="jetbrains.mps.baseLanguage.structure.ExpressionStatement" flags="nn" index="3clFbF">
        <child id="1068580123156" name="expression" index="3clFbG" />
      </concept>
      <concept id="1068580123157" name="jetbrains.mps.baseLanguage.structure.Statement" flags="nn" index="3clFbH" />
      <concept id="1068580123159" name="jetbrains.mps.baseLanguage.structure.IfStatement" flags="nn" index="3clFbJ">
        <child id="1068580123160" name="condition" index="3clFbw" />
        <child id="1068580123161" name="ifTrue" index="3clFbx" />
      </concept>
      <concept id="1068580123136" name="jetbrains.mps.baseLanguage.structure.StatementList" flags="sn" stub="5293379017992965193" index="3clFbS">
        <child id="1068581517665" name="statement" index="3cqZAp" />
      </concept>
      <concept id="1068580320020" name="jetbrains.mps.baseLanguage.structure.IntegerConstant" flags="nn" index="3cmrfG">
        <property id="1068580320021" name="value" index="3cmrfH" />
      </concept>
      <concept id="1068581242875" name="jetbrains.mps.baseLanguage.structure.PlusExpression" flags="nn" index="3cpWs3" />
      <concept id="1068581242878" name="jetbrains.mps.baseLanguage.structure.ReturnStatement" flags="nn" index="3cpWs6">
        <child id="1068581517676" name="expression" index="3cqZAk" />
      </concept>
      <concept id="1068581242864" name="jetbrains.mps.baseLanguage.structure.LocalVariableDeclarationStatement" flags="nn" index="3cpWs8">
        <child id="1068581242865" name="localVariableDeclaration" index="3cpWs9" />
      </concept>
      <concept id="1068581242863" name="jetbrains.mps.baseLanguage.structure.LocalVariableDeclaration" flags="nr" index="3cpWsn" />
      <concept id="1068581517677" name="jetbrains.mps.baseLanguage.structure.VoidType" flags="in" index="3cqZAl" />
      <concept id="1079359253375" name="jetbrains.mps.baseLanguage.structure.ParenthesizedExpression" flags="nn" index="1eOMI4">
        <child id="1079359253376" name="expression" index="1eOMHV" />
      </concept>
      <concept id="1081506762703" name="jetbrains.mps.baseLanguage.structure.GreaterThanExpression" flags="nn" index="3eOSWO" />
      <concept id="1081516740877" name="jetbrains.mps.baseLanguage.structure.NotExpression" flags="nn" index="3fqX7Q">
        <child id="1081516765348" name="expression" index="3fr31v" />
      </concept>
      <concept id="1204053956946" name="jetbrains.mps.baseLanguage.structure.IMethodCall" flags="ng" index="1ndlxa">
        <reference id="1068499141037" name="baseMethodDeclaration" index="37wK5l" />
        <child id="1068499141038" name="actualArgument" index="37wK5m" />
      </concept>
      <concept id="1212685548494" name="jetbrains.mps.baseLanguage.structure.ClassCreator" flags="nn" index="1pGfFk" />
      <concept id="1107461130800" name="jetbrains.mps.baseLanguage.structure.Classifier" flags="ng" index="3pOWGL">
        <property id="521412098689998745" name="nonStatic" index="2bfB8j" />
        <child id="5375687026011219971" name="member" index="jymVt" unordered="true" />
      </concept>
      <concept id="1107535904670" name="jetbrains.mps.baseLanguage.structure.ClassifierType" flags="in" index="3uibUv">
        <reference id="1107535924139" name="classifier" index="3uigEE" />
      </concept>
      <concept id="1081773326031" name="jetbrains.mps.baseLanguage.structure.BinaryOperation" flags="nn" index="3uHJSO">
        <child id="1081773367579" name="rightExpression" index="3uHU7w" />
        <child id="1081773367580" name="leftExpression" index="3uHU7B" />
      </concept>
      <concept id="1178549954367" name="jetbrains.mps.baseLanguage.structure.IVisible" flags="ng" index="1B3ioH">
        <child id="1178549979242" name="visibility" index="1B3o_S" />
      </concept>
      <concept id="1146644602865" name="jetbrains.mps.baseLanguage.structure.PublicVisibility" flags="nn" index="3Tm1VV" />
      <concept id="1170345865475" name="jetbrains.mps.baseLanguage.structure.AnonymousClass" flags="ig" index="1Y3b0j">
        <reference id="1170346070688" name="classifier" index="1Y3XeK" />
      </concept>
    </language>
    <language id="63650c59-16c8-498a-99c8-005c7ee9515d" name="jetbrains.mps.lang.access">
      <concept id="8974276187400348173" name="jetbrains.mps.lang.access.structure.CommandClosureLiteral" flags="nn" index="1QHqEC" />
      <concept id="8974276187400348170" name="jetbrains.mps.lang.access.structure.BaseExecuteCommandStatement" flags="nn" index="1QHqEJ">
        <child id="8974276187400348171" name="commandClosureLiteral" index="1QHqEI" />
      </concept>
      <concept id="8974276187400348177" name="jetbrains.mps.lang.access.structure.ExecuteCommandStatement" flags="nn" index="1QHqEO" />
    </language>
    <language id="fd392034-7849-419d-9071-12563d152375" name="jetbrains.mps.baseLanguage.closures">
      <concept id="1199569711397" name="jetbrains.mps.baseLanguage.closures.structure.ClosureLiteral" flags="nn" index="1bVj0M">
        <child id="1199569916463" name="body" index="1bW5cS" />
      </concept>
    </language>
    <language id="760a0a8c-eabb-4521-8bfd-65db761a9ba3" name="jetbrains.mps.baseLanguage.logging">
      <concept id="1167227138527" name="jetbrains.mps.baseLanguage.logging.structure.LogStatement" flags="nn" index="34ab3g">
        <property id="1167245565795" name="severity" index="35gtTG" />
        <child id="1167227463056" name="logExpression" index="34bqiv" />
      </concept>
    </language>
    <language id="7866978e-a0f0-4cc7-81bc-4d213d9375e1" name="jetbrains.mps.lang.smodel">
      <concept id="1179409122411" name="jetbrains.mps.lang.smodel.structure.Node_ConceptMethodCall" flags="nn" index="2qgKlT" />
      <concept id="1138056022639" name="jetbrains.mps.lang.smodel.structure.SPropertyAccess" flags="nn" index="3TrcHB">
        <reference id="1138056395725" name="property" index="3TsBF5" />
      </concept>
    </language>
    <language id="ceab5195-25ea-4f22-9b92-103b95ca8c0c" name="jetbrains.mps.lang.core">
      <concept id="1169194658468" name="jetbrains.mps.lang.core.structure.INamedConcept" flags="ng" index="TrEIO">
        <property id="1169194664001" name="name" index="TrG5h" />
      </concept>
    </language>
  </registry>
  <node concept="24kQdi" id="1oo09loiqe4">
    <ref role="1XX52x" to="80av:1oo09loik4O" resolve="LogFilSelector" />
    <node concept="3EZMnI" id="31zJxSiUMn1" role="2wV5jI">
      <node concept="2iRkQZ" id="31zJxSiUMn2" role="2iSdaV" />
      <node concept="3EZMnI" id="1oo09loisz2" role="3EZMnx">
        <node concept="3F0ifn" id="1oo09loisz4" role="3EZMnx">
          <property role="3F0ifm" value="Load" />
          <node concept="3Xmtl4" id="4Iz7iG42bYl" role="3F10Kt">
            <node concept="1wgc9g" id="4Iz7iG42bYp" role="3XvnJa">
              <ref role="1wgcnl" to="tpen:hgVS8CF" resolve="KeyWord" />
            </node>
          </node>
        </node>
        <node concept="3F0A7n" id="1oo09loiszc" role="3EZMnx">
          <ref role="1NtTu8" to="tpck:h0TrG11" resolve="name" />
        </node>
        <node concept="3gTLQM" id="31zJxSiTsEq" role="3EZMnx">
          <node concept="3Fmcul" id="31zJxSiTsEs" role="3FoqZy">
            <node concept="3clFbS" id="31zJxSiTsEu" role="2VODD2">
              <node concept="3cpWs8" id="31zJxSiUf5x" role="3cqZAp">
                <node concept="3cpWsn" id="31zJxSiUf5y" role="3cpWs9">
                  <property role="TrG5h" value="button" />
                  <node concept="3uibUv" id="31zJxSiUf5z" role="1tU5fm">
                    <ref role="3uigEE" to="dbrf:~JButton" resolve="JButton" />
                  </node>
                  <node concept="2ShNRf" id="31zJxSiUfD5" role="33vP2m">
                    <node concept="1pGfFk" id="31zJxSiUg19" role="2ShVmc">
                      <ref role="37wK5l" to="dbrf:~JButton.&lt;init&gt;(java.lang.String)" resolve="JButton" />
                      <node concept="Xl_RD" id="31zJxSiUgaR" role="37wK5m">
                        <property role="Xl_RC" value="..." />
                      </node>
                    </node>
                  </node>
                </node>
              </node>
              <node concept="3clFbF" id="31zJxSiUh_P" role="3cqZAp">
                <node concept="2OqwBi" id="31zJxSiUhPW" role="3clFbG">
                  <node concept="37vLTw" id="31zJxSiUh_N" role="2Oq$k0">
                    <ref role="3cqZAo" node="31zJxSiUf5y" resolve="button" />
                  </node>
                  <node concept="liA8E" id="31zJxSiUkOn" role="2OqNvi">
                    <ref role="37wK5l" to="dbrf:~AbstractButton.addActionListener(java.awt.event.ActionListener):void" resolve="addActionListener" />
                    <node concept="2ShNRf" id="31zJxSiUkYr" role="37wK5m">
                      <node concept="YeOm9" id="31zJxSiUllt" role="2ShVmc">
                        <node concept="1Y3b0j" id="31zJxSiUllw" role="YeSDq">
                          <property role="2bfB8j" value="true" />
                          <ref role="1Y3XeK" to="8q6x:~ActionListener" resolve="ActionListener" />
                          <ref role="37wK5l" to="e2lb:~Object.&lt;init&gt;()" resolve="Object" />
                          <node concept="3Tm1VV" id="31zJxSiUllx" role="1B3o_S" />
                          <node concept="3clFb_" id="31zJxSiUlly" role="jymVt">
                            <property role="1EzhhJ" value="false" />
                            <property role="TrG5h" value="actionPerformed" />
                            <property role="DiZV1" value="false" />
                            <property role="IEkAT" value="false" />
                            <node concept="3Tm1VV" id="31zJxSiUllz" role="1B3o_S" />
                            <node concept="3cqZAl" id="31zJxSiUll_" role="3clF45" />
                            <node concept="37vLTG" id="31zJxSiUllA" role="3clF46">
                              <property role="TrG5h" value="p0" />
                              <node concept="3uibUv" id="31zJxSiUllB" role="1tU5fm">
                                <ref role="3uigEE" to="8q6x:~ActionEvent" resolve="ActionEvent" />
                              </node>
                            </node>
                            <node concept="3clFbS" id="31zJxSiUllC" role="3clF47">
                              <node concept="3cpWs8" id="31zJxSiTZv2" role="3cqZAp">
                                <node concept="3cpWsn" id="31zJxSiTZv3" role="3cpWs9">
                                  <property role="TrG5h" value="fileChooser" />
                                  <node concept="3uibUv" id="31zJxSiTZv4" role="1tU5fm">
                                    <ref role="3uigEE" to="dbrf:~JFileChooser" resolve="JFileChooser" />
                                  </node>
                                  <node concept="2ShNRf" id="31zJxSiU038" role="33vP2m">
                                    <node concept="1pGfFk" id="31zJxSiU0jt" role="2ShVmc">
                                      <ref role="37wK5l" to="dbrf:~JFileChooser.&lt;init&gt;()" resolve="JFileChooser" />
                                    </node>
                                  </node>
                                </node>
                              </node>
                              <node concept="3cpWs8" id="31zJxSiUaPo" role="3cqZAp">
                                <node concept="3cpWsn" id="31zJxSiUaPp" role="3cpWs9">
                                  <property role="TrG5h" value="showOpenDialog" />
                                  <node concept="10Oyi0" id="31zJxSiUaPl" role="1tU5fm" />
                                  <node concept="2OqwBi" id="31zJxSiUaPq" role="33vP2m">
                                    <node concept="37vLTw" id="31zJxSiUaPr" role="2Oq$k0">
                                      <ref role="3cqZAo" node="31zJxSiTZv3" resolve="fileChooser" />
                                    </node>
                                    <node concept="liA8E" id="31zJxSiUaPs" role="2OqNvi">
                                      <ref role="37wK5l" to="dbrf:~JFileChooser.showOpenDialog(java.awt.Component):int" resolve="showOpenDialog" />
                                      <node concept="10Nm6u" id="31zJxSiUcc1" role="37wK5m" />
                                    </node>
                                  </node>
                                </node>
                              </node>
                              <node concept="3clFbJ" id="31zJxSiUcRy" role="3cqZAp">
                                <node concept="3clFbS" id="31zJxSiUcR$" role="3clFbx">
                                  <node concept="34ab3g" id="31zJxSiUees" role="3cqZAp">
                                    <property role="35gtTG" value="info" />
                                    <node concept="3cpWs3" id="31zJxSiUlOZ" role="34bqiv">
                                      <node concept="2OqwBi" id="31zJxSiUoBk" role="3uHU7w">
                                        <node concept="2OqwBi" id="31zJxSiUm3q" role="2Oq$k0">
                                          <node concept="37vLTw" id="31zJxSiUlPS" role="2Oq$k0">
                                            <ref role="3cqZAo" node="31zJxSiTZv3" resolve="fileChooser" />
                                          </node>
                                          <node concept="liA8E" id="31zJxSiUosD" role="2OqNvi">
                                            <ref role="37wK5l" to="dbrf:~JFileChooser.getSelectedFile():java.io.File" resolve="getSelectedFile" />
                                          </node>
                                        </node>
                                        <node concept="liA8E" id="31zJxSiUp6e" role="2OqNvi">
                                          <ref role="37wK5l" to="fxg7:~File.toString():java.lang.String" resolve="toString" />
                                        </node>
                                      </node>
                                      <node concept="Xl_RD" id="31zJxSiUeeu" role="3uHU7B">
                                        <property role="Xl_RC" value="selected file was " />
                                      </node>
                                    </node>
                                  </node>
                                  <node concept="1QHqEO" id="31zJxSiUIey" role="3cqZAp">
                                    <node concept="1QHqEC" id="31zJxSiUIe$" role="1QHqEI">
                                      <node concept="3clFbS" id="31zJxSiUIeA" role="1bW5cS">
                                        <node concept="3clFbF" id="31zJxSiUwNh" role="3cqZAp">
                                          <node concept="37vLTI" id="31zJxSiUxtf" role="3clFbG">
                                            <node concept="2OqwBi" id="31zJxSiUzdD" role="37vLTx">
                                              <node concept="2OqwBi" id="31zJxSiUxN8" role="2Oq$k0">
                                                <node concept="37vLTw" id="31zJxSiUxyP" role="2Oq$k0">
                                                  <ref role="3cqZAo" node="31zJxSiTZv3" resolve="fileChooser" />
                                                </node>
                                                <node concept="liA8E" id="31zJxSiUz56" role="2OqNvi">
                                                  <ref role="37wK5l" to="dbrf:~JFileChooser.getSelectedFile():java.io.File" resolve="getSelectedFile" />
                                                </node>
                                              </node>
                                              <node concept="liA8E" id="31zJxSiU$IV" role="2OqNvi">
                                                <ref role="37wK5l" to="fxg7:~File.toString():java.lang.String" resolve="toString" />
                                              </node>
                                            </node>
                                            <node concept="2OqwBi" id="31zJxSiUwPE" role="37vLTJ">
                                              <node concept="pncrf" id="31zJxSiUwNg" role="2Oq$k0" />
                                              <node concept="3TrcHB" id="31zJxSiUWfW" role="2OqNvi">
                                                <ref role="3TsBF5" to="80av:31zJxSiUUUU" resolve="fileLocation" />
                                              </node>
                                            </node>
                                          </node>
                                        </node>
                                        <node concept="3clFbF" id="7HoD$xn5u8w" role="3cqZAp">
                                          <node concept="37vLTI" id="7HoD$xn5uXD" role="3clFbG">
                                            <node concept="2OqwBi" id="7HoD$xn5wLl" role="37vLTx">
                                              <node concept="2OqwBi" id="7HoD$xn5vmp" role="2Oq$k0">
                                                <node concept="37vLTw" id="7HoD$xn5v52" role="2Oq$k0">
                                                  <ref role="3cqZAo" node="31zJxSiTZv3" resolve="fileChooser" />
                                                </node>
                                                <node concept="liA8E" id="7HoD$xn5wBR" role="2OqNvi">
                                                  <ref role="37wK5l" to="dbrf:~JFileChooser.getSelectedFile():java.io.File" resolve="getSelectedFile" />
                                                </node>
                                              </node>
                                              <node concept="liA8E" id="7HoD$xn5xmM" role="2OqNvi">
                                                <ref role="37wK5l" to="fxg7:~File.getName():java.lang.String" resolve="getName" />
                                              </node>
                                            </node>
                                            <node concept="2OqwBi" id="7HoD$xn5ubF" role="37vLTJ">
                                              <node concept="pncrf" id="7HoD$xn5u8u" role="2Oq$k0" />
                                              <node concept="3TrcHB" id="7HoD$xn5u$V" role="2OqNvi">
                                                <ref role="3TsBF5" to="80av:7HoD$xn5r91" resolve="fileNme" />
                                              </node>
                                            </node>
                                          </node>
                                        </node>
                                        <node concept="34ab3g" id="31zJxSiUFCw" role="3cqZAp">
                                          <property role="35gtTG" value="info" />
                                          <node concept="Xl_RD" id="31zJxSiUFCy" role="34bqiv">
                                            <property role="Xl_RC" value="inside write action!!" />
                                          </node>
                                        </node>
                                      </node>
                                    </node>
                                  </node>
                                </node>
                                <node concept="3clFbC" id="31zJxSiUduO" role="3clFbw">
                                  <node concept="10M0yZ" id="31zJxSiUdCo" role="3uHU7w">
                                    <ref role="1PxDUh" to="dbrf:~JFileChooser" resolve="JFileChooser" />
                                    <ref role="3cqZAo" to="dbrf:~JFileChooser.APPROVE_OPTION" resolve="APPROVE_OPTION" />
                                  </node>
                                  <node concept="37vLTw" id="31zJxSiUd1u" role="3uHU7B">
                                    <ref role="3cqZAo" node="31zJxSiUaPp" resolve="showOpenDialog" />
                                  </node>
                                </node>
                              </node>
                            </node>
                          </node>
                        </node>
                      </node>
                    </node>
                  </node>
                </node>
              </node>
              <node concept="3cpWs6" id="31zJxSiUhai" role="3cqZAp">
                <node concept="37vLTw" id="31zJxSiUhsu" role="3cqZAk">
                  <ref role="3cqZAo" node="31zJxSiUf5y" resolve="button" />
                </node>
              </node>
            </node>
          </node>
        </node>
        <node concept="2iRfu4" id="1oo09loisz5" role="2iSdaV" />
        <node concept="3F0A7n" id="7HoD$xn5rBL" role="3EZMnx">
          <ref role="1NtTu8" to="80av:7HoD$xn5r91" resolve="fileNme" />
        </node>
        <node concept="3F0ifn" id="7HoD$xn5sxD" role="3EZMnx">
          <property role="3F0ifm" value="parsing for " />
          <node concept="3Xmtl4" id="4Iz7iG42bZi" role="3F10Kt">
            <node concept="1wgc9g" id="4Iz7iG42bZo" role="3XvnJa">
              <ref role="1wgcnl" to="tpen:hgVS8CF" resolve="KeyWord" />
            </node>
          </node>
        </node>
        <node concept="3EZMnI" id="7HoD$xn5tlF" role="3EZMnx">
          <node concept="3F2HdR" id="7HoD$xn5tz9" role="3EZMnx">
            <ref role="1NtTu8" to="80av:31zJxSiULHM" />
            <node concept="2iRkQZ" id="7HoD$xn5tzb" role="2czzBx" />
          </node>
          <node concept="2iRkQZ" id="7HoD$xn5tlI" role="2iSdaV" />
          <node concept="Vb9p2" id="4Iz7iG430Hg" role="3F10Kt" />
        </node>
      </node>
      <node concept="3F2HdR" id="_IX99AD5o$" role="3EZMnx">
        <ref role="1NtTu8" to="80av:_IX99AD57A" />
        <node concept="2iRkQZ" id="_IX99AD5oA" role="2czzBx" />
      </node>
    </node>
    <node concept="3EZMnI" id="7HoD$xn5CBK" role="6VMZX">
      <node concept="2iRfu4" id="7HoD$xn5CBL" role="2iSdaV" />
      <node concept="3F0ifn" id="7HoD$xn5Cqi" role="3EZMnx">
        <property role="3F0ifm" value="full file name:" />
        <node concept="3Xmtl4" id="4Iz7iG42c88" role="3F10Kt">
          <node concept="1wgc9g" id="4Iz7iG42c8e" role="3XvnJa">
            <ref role="1wgcnl" to="tpen:hgVS8CF" resolve="KeyWord" />
          </node>
        </node>
      </node>
      <node concept="3F0A7n" id="7HoD$xn5CPv" role="3EZMnx">
        <ref role="1NtTu8" to="80av:31zJxSiUUUU" resolve="fileLocation" />
      </node>
    </node>
  </node>
  <node concept="24kQdi" id="66tNEy7MCJL">
    <ref role="1XX52x" to="80av:66tNEy7MCIO" resolve="Member" />
    <node concept="3EZMnI" id="4Iz7iG3L90H" role="2wV5jI">
      <node concept="2iRkQZ" id="4Iz7iG3L90I" role="2iSdaV" />
      <node concept="3EZMnI" id="66tNEy7MD8L" role="3EZMnx">
        <node concept="3F0A7n" id="66tNEy7MD8S" role="3EZMnx">
          <ref role="1NtTu8" to="tpck:h0TrG11" resolve="name" />
        </node>
        <node concept="3F0ifn" id="66tNEy7MLDY" role="3EZMnx">
          <property role="3F0ifm" value="as" />
          <node concept="3Xmtl4" id="4Iz7iG3Y7$M" role="3F10Kt">
            <node concept="1wgc9g" id="4Iz7iG3Y7Gm" role="3XvnJa">
              <ref role="1wgcnl" to="tpen:hgVS8CF" resolve="KeyWord" />
            </node>
          </node>
        </node>
        <node concept="3F0ifn" id="66tNEy7OiNl" role="3EZMnx">
          <property role="3F0ifm" value="" />
        </node>
        <node concept="3F1sOY" id="3SMMV5ZS0cL" role="3EZMnx">
          <ref role="1NtTu8" to="tpee:4VkOLwjf83e" />
        </node>
        <node concept="3F0ifn" id="1Zzbrikhnc7" role="3EZMnx">
          <property role="3F0ifm" value="@" />
          <node concept="3Xmtl4" id="4Iz7iG3YhaB" role="3F10Kt">
            <node concept="1wgc9g" id="4Iz7iG3YhaG" role="3XvnJa">
              <ref role="1wgcnl" to="tpen:hF$iUjy" resolve="Operator" />
            </node>
          </node>
        </node>
        <node concept="3F0ifn" id="1Zzbrikhnd9" role="3EZMnx">
          <property role="3F0ifm" value="[" />
          <node concept="3Xmtl4" id="4Iz7iG3YqCt" role="3F10Kt">
            <node concept="1wgc9g" id="4Iz7iG3YqCy" role="3XvnJa">
              <ref role="1wgcnl" to="tpen:hXb$RYA" resolve="LeftBracket" />
            </node>
          </node>
        </node>
        <node concept="3F0A7n" id="1Zzbrikhncp" role="3EZMnx">
          <ref role="1NtTu8" to="80av:1Zzbrikhnbr" resolve="index" />
        </node>
        <node concept="3F0ifn" id="1Zzbrikhndv" role="3EZMnx">
          <property role="3F0ifm" value="]" />
          <node concept="3Xmtl4" id="4Iz7iG3YqEe" role="3F10Kt">
            <node concept="1wgc9g" id="4Iz7iG3YqEj" role="3XvnJa">
              <ref role="1wgcnl" to="tpen:hXb$V4T" resolve="RightBracket" />
            </node>
          </node>
        </node>
        <node concept="3F0ifn" id="1ZzbrikhPgz" role="3EZMnx">
          <property role="3F0ifm" value="capture " />
          <node concept="3Xmtl4" id="4Iz7iG3Y$ba" role="3F10Kt">
            <node concept="1wgc9g" id="4Iz7iG3Y$j5" role="3XvnJa">
              <ref role="1wgcnl" to="tpen:hgVS8CF" resolve="KeyWord" />
            </node>
          </node>
          <node concept="pkWqt" id="74LOPGM2fgW" role="pqm2j">
            <node concept="3clFbS" id="74LOPGM2fgX" role="2VODD2">
              <node concept="3clFbF" id="74LOPGM2flS" role="3cqZAp">
                <node concept="3eOSWO" id="74LOPGM2i48" role="3clFbG">
                  <node concept="3cmrfG" id="74LOPGM2i4e" role="3uHU7w">
                    <property role="3cmrfH" value="0" />
                  </node>
                  <node concept="2OqwBi" id="74LOPGM2fxI" role="3uHU7B">
                    <node concept="pncrf" id="74LOPGM2flR" role="2Oq$k0" />
                    <node concept="3TrcHB" id="74LOPGM2gXy" role="2OqNvi">
                      <ref role="3TsBF5" to="80av:1Zzbrikhnbr" resolve="index" />
                    </node>
                  </node>
                </node>
              </node>
            </node>
          </node>
        </node>
        <node concept="3F0A7n" id="1ZzbrikhPhb" role="3EZMnx">
          <ref role="1NtTu8" to="80av:1ZzbrikhPg2" resolve="pattern" />
          <node concept="pkWqt" id="74LOPGM2cUf" role="pqm2j">
            <node concept="3clFbS" id="74LOPGM2cUg" role="2VODD2">
              <node concept="3clFbF" id="74LOPGM2cZb" role="3cqZAp">
                <node concept="3eOSWO" id="74LOPGM2f21" role="3clFbG">
                  <node concept="3cmrfG" id="74LOPGM2f27" role="3uHU7w">
                    <property role="3cmrfH" value="0" />
                  </node>
                  <node concept="2OqwBi" id="74LOPGM2db1" role="3uHU7B">
                    <node concept="pncrf" id="74LOPGM2cZa" role="2Oq$k0" />
                    <node concept="3TrcHB" id="74LOPGM2dV$" role="2OqNvi">
                      <ref role="3TsBF5" to="80av:1Zzbrikhnbr" resolve="index" />
                    </node>
                  </node>
                </node>
              </node>
            </node>
          </node>
          <node concept="3Xmtl4" id="4Iz7iG3YRpP" role="3F10Kt">
            <node concept="1wgc9g" id="4Iz7iG3YRxI" role="3XvnJa">
              <ref role="1wgcnl" to="tpen:aeM1BF$INI" />
            </node>
          </node>
        </node>
        <node concept="2iRfu4" id="66tNEy7MD8O" role="2iSdaV" />
        <node concept="2V7CMv" id="1By676OuCCE" role="3F10Kt">
          <property role="2V7CMs" value="default_RTransform" />
        </node>
      </node>
      <node concept="3F0ifn" id="4Iz7iG3GmHH" role="3EZMnx">
        <property role="3F0ifm" value="converter" />
        <node concept="pkWqt" id="4Iz7iG3GoXa" role="pqm2j">
          <node concept="3clFbS" id="4Iz7iG3GoXb" role="2VODD2">
            <node concept="3clFbF" id="4Iz7iG3JFD9" role="3cqZAp">
              <node concept="3fqX7Q" id="4Iz7iG3JGPF" role="3clFbG">
                <node concept="2OqwBi" id="4Iz7iG3JGPH" role="3fr31v">
                  <node concept="pncrf" id="4Iz7iG3JGPI" role="2Oq$k0" />
                  <node concept="2qgKlT" id="4Iz7iG3JGPJ" role="2OqNvi">
                    <ref role="37wK5l" to="kd05:4Iz7iG3GNk4" resolve="isStringType" />
                  </node>
                </node>
              </node>
            </node>
          </node>
        </node>
      </node>
      <node concept="3F1sOY" id="4Iz7iG3GoX4" role="3EZMnx">
        <ref role="1NtTu8" to="80av:4Iz7iG3GjXD" />
        <node concept="pkWqt" id="4Iz7iG3JH5C" role="pqm2j">
          <node concept="3clFbS" id="4Iz7iG3JH5D" role="2VODD2">
            <node concept="3clFbF" id="4Iz7iG3JHa$" role="3cqZAp">
              <node concept="3fqX7Q" id="4Iz7iG3JIna" role="3clFbG">
                <node concept="2OqwBi" id="4Iz7iG3JInc" role="3fr31v">
                  <node concept="pncrf" id="4Iz7iG3JInd" role="2Oq$k0" />
                  <node concept="2qgKlT" id="4Iz7iG3JIne" role="2OqNvi">
                    <ref role="37wK5l" to="kd05:4Iz7iG3GNk4" resolve="isStringType" />
                  </node>
                </node>
              </node>
            </node>
          </node>
        </node>
      </node>
    </node>
    <node concept="3EZMnI" id="3SMMV6005tB" role="6VMZX">
      <node concept="2iRkQZ" id="3SMMV6005tC" role="2iSdaV" />
      <node concept="3F0ifn" id="3SMMV6005tD" role="3EZMnx">
        <property role="3F0ifm" value="initializer" />
        <node concept="pkWqt" id="4Iz7iG3JIBi" role="pqm2j">
          <node concept="3clFbS" id="4Iz7iG3JIBj" role="2VODD2">
            <node concept="3clFbF" id="4Iz7iG3JIGe" role="3cqZAp">
              <node concept="3fqX7Q" id="4Iz7iG3JKSl" role="3clFbG">
                <node concept="1eOMI4" id="4Iz7iG3JLik" role="3fr31v">
                  <node concept="3eOSWO" id="4Iz7iG3JKSn" role="1eOMHV">
                    <node concept="3cmrfG" id="4Iz7iG3JKSo" role="3uHU7w">
                      <property role="3cmrfH" value="0" />
                    </node>
                    <node concept="2OqwBi" id="4Iz7iG3JKSp" role="3uHU7B">
                      <node concept="pncrf" id="4Iz7iG3JKSq" role="2Oq$k0" />
                      <node concept="3TrcHB" id="4Iz7iG3JKSr" role="2OqNvi">
                        <ref role="3TsBF5" to="80av:1Zzbrikhnbr" resolve="index" />
                      </node>
                    </node>
                  </node>
                </node>
              </node>
            </node>
          </node>
        </node>
      </node>
      <node concept="3F1sOY" id="3SMMV6005tE" role="3EZMnx">
        <ref role="1NtTu8" to="tpee:fz3vP1I" />
        <node concept="pkWqt" id="4Iz7iG3JLxE" role="pqm2j">
          <node concept="3clFbS" id="4Iz7iG3JLxF" role="2VODD2">
            <node concept="3clFbF" id="4Iz7iG3JLAA" role="3cqZAp">
              <node concept="3fqX7Q" id="4Iz7iG3JNMI" role="3clFbG">
                <node concept="1eOMI4" id="4Iz7iG3JXS_" role="3fr31v">
                  <node concept="3eOSWO" id="4Iz7iG3JNMK" role="1eOMHV">
                    <node concept="3cmrfG" id="4Iz7iG3JNML" role="3uHU7w">
                      <property role="3cmrfH" value="0" />
                    </node>
                    <node concept="2OqwBi" id="4Iz7iG3JNMM" role="3uHU7B">
                      <node concept="pncrf" id="4Iz7iG3JNMN" role="2Oq$k0" />
                      <node concept="3TrcHB" id="4Iz7iG3JNMO" role="2OqNvi">
                        <ref role="3TsBF5" to="80av:1Zzbrikhnbr" resolve="index" />
                      </node>
                    </node>
                  </node>
                </node>
              </node>
            </node>
          </node>
        </node>
      </node>
    </node>
  </node>
  <node concept="24kQdi" id="66tNEy7MNHP">
    <ref role="1XX52x" to="80av:66tNEy7Mgmx" resolve="LoggedItem" />
    <node concept="3EZMnI" id="66tNEy7MYZF" role="2wV5jI">
      <node concept="3F0ifn" id="66tNEy7MYZL" role="3EZMnx">
        <property role="3F0ifm" value="" />
      </node>
      <node concept="3F0A7n" id="66tNEy7MYZR" role="3EZMnx">
        <ref role="1NtTu8" to="tpck:h0TrG11" resolve="name" />
      </node>
      <node concept="3EZMnI" id="66tNEy7MYZZ" role="3EZMnx">
        <node concept="3F0ifn" id="1Zzbriknkak" role="3EZMnx" />
        <node concept="2iRkQZ" id="66tNEy7MZ02" role="2iSdaV" />
        <node concept="3F0ifn" id="1Zzbrikguda" role="3EZMnx">
          <property role="3F0ifm" value="parse as" />
          <node concept="3Xmtl4" id="4Iz7iG3Z1xq" role="3F10Kt">
            <node concept="1wgc9g" id="4Iz7iG3Z1xu" role="3XvnJa">
              <ref role="1wgcnl" to="tpen:hgVS8CF" resolve="KeyWord" />
            </node>
          </node>
        </node>
        <node concept="3F1sOY" id="1Zzbrikhzfu" role="3EZMnx">
          <ref role="1NtTu8" to="80av:1Zzbrikhzf4" />
        </node>
        <node concept="3F0ifn" id="74LOPGM0Icd" role="3EZMnx" />
        <node concept="3F0ifn" id="1By676OdK99" role="3EZMnx">
          <property role="3F0ifm" value="transformers" />
          <node concept="3Xmtl4" id="4Iz7iG3Z1E2" role="3F10Kt">
            <node concept="1wgc9g" id="4Iz7iG3Z1E6" role="3XvnJa">
              <ref role="1wgcnl" to="tpen:hgVS8CF" resolve="KeyWord" />
            </node>
          </node>
        </node>
        <node concept="3F1sOY" id="74LOPGM5lnG" role="3EZMnx">
          <ref role="1NtTu8" to="80av:1By676OcpLm" />
        </node>
        <node concept="3F0ifn" id="74LOPGM5Kt$" role="3EZMnx" />
      </node>
      <node concept="2iRfu4" id="66tNEy7MYZG" role="2iSdaV" />
    </node>
  </node>
  <node concept="24kQdi" id="1ZzbrikhxyI">
    <ref role="1XX52x" to="80av:1ZzbrikhxxY" resolve="Pattern" />
    <node concept="3EZMnI" id="1Zzbrikq9Gx" role="2wV5jI">
      <node concept="3F0ifn" id="1Zzbrikq9GD" role="3EZMnx">
        <property role="3F0ifm" value="using line:" />
        <node concept="3Xmtl4" id="4Iz7iG3ZbcH" role="3F10Kt">
          <node concept="1wgc9g" id="4Iz7iG3ZbcM" role="3XvnJa">
            <ref role="1wgcnl" to="tpen:hgVS8CF" resolve="KeyWord" />
          </node>
        </node>
      </node>
      <node concept="2iRkQZ" id="1Zzbrikq9Gy" role="2iSdaV" />
      <node concept="3F1sOY" id="31zJxSiSOgU" role="3EZMnx">
        <ref role="1NtTu8" to="80av:1ZzbriknkcM" />
      </node>
      <node concept="3F0ifn" id="_IX99A_eHj" role="3EZMnx">
        <property role="3F0ifm" value="identified by" />
        <node concept="3Xmtl4" id="4Iz7iG3Zbmf" role="3F10Kt">
          <node concept="1wgc9g" id="4Iz7iG3Zbmk" role="3XvnJa">
            <ref role="1wgcnl" to="tpen:hgVS8CF" resolve="KeyWord" />
          </node>
        </node>
      </node>
      <node concept="3F1sOY" id="_IX99AAHa$" role="3EZMnx">
        <ref role="1NtTu8" to="80av:_IX99AAH9S" />
      </node>
      <node concept="3F0ifn" id="_IX99AAPh5" role="3EZMnx">
        <property role="3F0ifm" value="having" />
        <node concept="3Xmtl4" id="4Iz7iG3Zbv2" role="3F10Kt">
          <node concept="1wgc9g" id="4Iz7iG3Zbv9" role="3XvnJa">
            <ref role="1wgcnl" to="tpen:hgVS8CF" resolve="KeyWord" />
          </node>
        </node>
      </node>
      <node concept="3F2HdR" id="1Zzbrikj8px" role="3EZMnx">
        <ref role="1NtTu8" to="80av:1Zzbrikhxyq" />
        <node concept="2iRkQZ" id="1Zzbrikj8py" role="2czzBx" />
      </node>
    </node>
  </node>
  <node concept="24kQdi" id="31zJxSiURKt">
    <ref role="1XX52x" to="80av:31zJxSiUO6T" resolve="LoggedItemReference" />
    <node concept="3EZMnI" id="_IX99A$EkB" role="2wV5jI">
      <node concept="2iRfu4" id="_IX99A$EkC" role="2iSdaV" />
      <node concept="1iCGBv" id="31zJxSiURKU" role="3EZMnx">
        <ref role="1NtTu8" to="80av:31zJxSiUO7l" />
        <node concept="1sVBvm" id="31zJxSiURKW" role="1sWHZn">
          <node concept="3F0A7n" id="31zJxSiURL3" role="2wV5jI">
            <property role="1Intyy" value="true" />
            <ref role="1NtTu8" to="tpck:h0TrG11" resolve="name" />
          </node>
        </node>
        <node concept="3Xmtl4" id="4Iz7iG42QLv" role="3F10Kt">
          <node concept="1wgc9g" id="4Iz7iG42QLK" role="3XvnJa">
            <ref role="1wgcnl" to="tpen:hFD0yD_" resolve="VariableName" />
          </node>
        </node>
      </node>
    </node>
  </node>
  <node concept="24kQdi" id="_IX99AACPv">
    <ref role="1XX52x" to="80av:_IX99A_ZKL" resolve="ItemIdentifier" />
    <node concept="1iCGBv" id="_IX99AACPx" role="2wV5jI">
      <ref role="1NtTu8" to="80av:_IX99AAwGa" />
      <node concept="1sVBvm" id="_IX99AACPz" role="1sWHZn">
        <node concept="3F0A7n" id="_IX99AACPE" role="2wV5jI">
          <property role="1Intyy" value="true" />
          <ref role="1NtTu8" to="tpck:h0TrG11" resolve="name" />
        </node>
      </node>
    </node>
  </node>
  <node concept="24kQdi" id="_IX99AD3Gg">
    <ref role="1XX52x" to="80av:_IX99AD3Ey" resolve="CSVExport" />
    <node concept="3EZMnI" id="7HoD$xmLtlM" role="2wV5jI">
      <node concept="2iRkQZ" id="7HoD$xmLtlN" role="2iSdaV" />
      <node concept="3EZMnI" id="7HoD$xmLL6u" role="3EZMnx">
        <node concept="l2Vlx" id="7HoD$xmLL6v" role="2iSdaV" />
        <node concept="3EZMnI" id="_IX99AD3Gl" role="3EZMnx">
          <node concept="2iRfu4" id="_IX99AD3Gm" role="2iSdaV" />
          <node concept="3F0ifn" id="_IX99AD3Gi" role="3EZMnx">
            <property role="3F0ifm" value="export" />
            <node concept="3Xmtl4" id="4Iz7iG42cs7" role="3F10Kt">
              <node concept="1wgc9g" id="4Iz7iG42csc" role="3XvnJa">
                <ref role="1wgcnl" to="tpen:hgVS8CF" resolve="KeyWord" />
              </node>
            </node>
          </node>
          <node concept="1iCGBv" id="_IX99AD3Gu" role="3EZMnx">
            <ref role="1NtTu8" to="80av:_IX99AD3F_" />
            <node concept="1sVBvm" id="_IX99AD3Gw" role="1sWHZn">
              <node concept="3F0A7n" id="_IX99AD3GC" role="2wV5jI">
                <property role="1Intyy" value="true" />
                <ref role="1NtTu8" to="tpck:h0TrG11" resolve="name" />
              </node>
            </node>
          </node>
          <node concept="3F0ifn" id="_IX99AD3J2" role="3EZMnx">
            <property role="3F0ifm" value="to" />
            <node concept="3Xmtl4" id="4Iz7iG42c_2" role="3F10Kt">
              <node concept="1wgc9g" id="4Iz7iG42c_9" role="3XvnJa">
                <ref role="1wgcnl" to="tpen:hgVS8CF" resolve="KeyWord" />
              </node>
            </node>
          </node>
          <node concept="3gTLQM" id="_IX99AEtiq" role="3EZMnx">
            <node concept="3Fmcul" id="_IX99AEtis" role="3FoqZy">
              <node concept="3clFbS" id="_IX99AEtiu" role="2VODD2">
                <node concept="3cpWs8" id="_IX99AEtN_" role="3cqZAp">
                  <node concept="3cpWsn" id="_IX99AEtNA" role="3cpWs9">
                    <property role="TrG5h" value="button" />
                    <node concept="3uibUv" id="_IX99AEtNB" role="1tU5fm">
                      <ref role="3uigEE" to="dbrf:~JButton" resolve="JButton" />
                    </node>
                    <node concept="2ShNRf" id="_IX99AEtNC" role="33vP2m">
                      <node concept="1pGfFk" id="_IX99AEtND" role="2ShVmc">
                        <ref role="37wK5l" to="dbrf:~JButton.&lt;init&gt;(java.lang.String)" resolve="JButton" />
                        <node concept="Xl_RD" id="_IX99AEtNE" role="37wK5m">
                          <property role="Xl_RC" value="to" />
                        </node>
                      </node>
                    </node>
                  </node>
                </node>
                <node concept="3clFbF" id="_IX99AEtNF" role="3cqZAp">
                  <node concept="2OqwBi" id="_IX99AEtNG" role="3clFbG">
                    <node concept="37vLTw" id="_IX99AEtNH" role="2Oq$k0">
                      <ref role="3cqZAo" node="_IX99AEtNA" resolve="button" />
                    </node>
                    <node concept="liA8E" id="_IX99AEtNI" role="2OqNvi">
                      <ref role="37wK5l" to="dbrf:~AbstractButton.addActionListener(java.awt.event.ActionListener):void" resolve="addActionListener" />
                      <node concept="2ShNRf" id="_IX99AEtNJ" role="37wK5m">
                        <node concept="YeOm9" id="_IX99AEtNK" role="2ShVmc">
                          <node concept="1Y3b0j" id="_IX99AEtNL" role="YeSDq">
                            <property role="2bfB8j" value="true" />
                            <ref role="1Y3XeK" to="8q6x:~ActionListener" resolve="ActionListener" />
                            <ref role="37wK5l" to="e2lb:~Object.&lt;init&gt;()" resolve="Object" />
                            <node concept="3Tm1VV" id="_IX99AEtNM" role="1B3o_S" />
                            <node concept="3clFb_" id="_IX99AEtNN" role="jymVt">
                              <property role="1EzhhJ" value="false" />
                              <property role="TrG5h" value="actionPerformed" />
                              <property role="DiZV1" value="false" />
                              <property role="IEkAT" value="false" />
                              <node concept="3Tm1VV" id="_IX99AEtNO" role="1B3o_S" />
                              <node concept="3cqZAl" id="_IX99AEtNP" role="3clF45" />
                              <node concept="37vLTG" id="_IX99AEtNQ" role="3clF46">
                                <property role="TrG5h" value="p0" />
                                <node concept="3uibUv" id="_IX99AEtNR" role="1tU5fm">
                                  <ref role="3uigEE" to="8q6x:~ActionEvent" resolve="ActionEvent" />
                                </node>
                              </node>
                              <node concept="3clFbS" id="_IX99AEtNS" role="3clF47">
                                <node concept="3cpWs8" id="_IX99AEtNT" role="3cqZAp">
                                  <node concept="3cpWsn" id="_IX99AEtNU" role="3cpWs9">
                                    <property role="TrG5h" value="fileChooser" />
                                    <node concept="3uibUv" id="_IX99AEtNV" role="1tU5fm">
                                      <ref role="3uigEE" to="dbrf:~JFileChooser" resolve="JFileChooser" />
                                    </node>
                                    <node concept="2ShNRf" id="_IX99AEtNW" role="33vP2m">
                                      <node concept="1pGfFk" id="_IX99AEtNX" role="2ShVmc">
                                        <ref role="37wK5l" to="dbrf:~JFileChooser.&lt;init&gt;()" resolve="JFileChooser" />
                                      </node>
                                    </node>
                                  </node>
                                </node>
                                <node concept="3clFbF" id="_IX99AEv3d" role="3cqZAp">
                                  <node concept="2OqwBi" id="_IX99AEvjB" role="3clFbG">
                                    <node concept="37vLTw" id="_IX99AEv3b" role="2Oq$k0">
                                      <ref role="3cqZAo" node="_IX99AEtNU" resolve="fileChooser" />
                                    </node>
                                    <node concept="liA8E" id="_IX99AEwYU" role="2OqNvi">
                                      <ref role="37wK5l" to="dbrf:~JFileChooser.setDialogType(int):void" resolve="setDialogType" />
                                      <node concept="10M0yZ" id="_IX99AE_6L" role="37wK5m">
                                        <ref role="1PxDUh" to="dbrf:~JFileChooser" resolve="JFileChooser" />
                                        <ref role="3cqZAo" to="dbrf:~JFileChooser.SAVE_DIALOG" resolve="SAVE_DIALOG" />
                                      </node>
                                    </node>
                                  </node>
                                </node>
                                <node concept="3cpWs8" id="_IX99AEtNY" role="3cqZAp">
                                  <node concept="3cpWsn" id="_IX99AEtNZ" role="3cpWs9">
                                    <property role="TrG5h" value="showOpenDialog" />
                                    <node concept="10Oyi0" id="_IX99AEtO0" role="1tU5fm" />
                                    <node concept="2OqwBi" id="_IX99AEtO1" role="33vP2m">
                                      <node concept="37vLTw" id="_IX99AEtO2" role="2Oq$k0">
                                        <ref role="3cqZAo" node="_IX99AEtNU" resolve="fileChooser" />
                                      </node>
                                      <node concept="liA8E" id="_IX99AEtO3" role="2OqNvi">
                                        <ref role="37wK5l" to="dbrf:~JFileChooser.showSaveDialog(java.awt.Component):int" resolve="showSaveDialog" />
                                        <node concept="10Nm6u" id="_IX99AEtO4" role="37wK5m" />
                                      </node>
                                    </node>
                                  </node>
                                </node>
                                <node concept="3clFbJ" id="_IX99AEtO5" role="3cqZAp">
                                  <node concept="3clFbS" id="_IX99AEtO6" role="3clFbx">
                                    <node concept="1QHqEO" id="_IX99AEtOf" role="3cqZAp">
                                      <node concept="1QHqEC" id="_IX99AEtOg" role="1QHqEI">
                                        <node concept="3clFbS" id="_IX99AEtOh" role="1bW5cS">
                                          <node concept="3clFbF" id="_IX99AEtOi" role="3cqZAp">
                                            <node concept="37vLTI" id="_IX99AEtOj" role="3clFbG">
                                              <node concept="2OqwBi" id="_IX99AEtOk" role="37vLTx">
                                                <node concept="2OqwBi" id="_IX99AEtOl" role="2Oq$k0">
                                                  <node concept="37vLTw" id="_IX99AEtOm" role="2Oq$k0">
                                                    <ref role="3cqZAo" node="_IX99AEtNU" resolve="fileChooser" />
                                                  </node>
                                                  <node concept="liA8E" id="_IX99AEtOn" role="2OqNvi">
                                                    <ref role="37wK5l" to="dbrf:~JFileChooser.getSelectedFile():java.io.File" resolve="getSelectedFile" />
                                                  </node>
                                                </node>
                                                <node concept="liA8E" id="_IX99AEtOo" role="2OqNvi">
                                                  <ref role="37wK5l" to="fxg7:~File.toString():java.lang.String" resolve="toString" />
                                                </node>
                                              </node>
                                              <node concept="2OqwBi" id="_IX99AEtOp" role="37vLTJ">
                                                <node concept="pncrf" id="_IX99AEtOq" role="2Oq$k0" />
                                                <node concept="3TrcHB" id="_IX99AEC05" role="2OqNvi">
                                                  <ref role="3TsBF5" to="80av:_IX99AEBxF" resolve="fileName" />
                                                </node>
                                              </node>
                                            </node>
                                          </node>
                                          <node concept="3clFbF" id="7HoD$xn4zgk" role="3cqZAp">
                                            <node concept="37vLTI" id="7HoD$xn4$cy" role="3clFbG">
                                              <node concept="2OqwBi" id="7HoD$xn4AjR" role="37vLTx">
                                                <node concept="2OqwBi" id="7HoD$xn4$Hc" role="2Oq$k0">
                                                  <node concept="37vLTw" id="7HoD$xn4$pf" role="2Oq$k0">
                                                    <ref role="3cqZAo" node="_IX99AEtNU" resolve="fileChooser" />
                                                  </node>
                                                  <node concept="liA8E" id="7HoD$xn4A7F" role="2OqNvi">
                                                    <ref role="37wK5l" to="dbrf:~JFileChooser.getSelectedFile():java.io.File" resolve="getSelectedFile" />
                                                  </node>
                                                </node>
                                                <node concept="liA8E" id="7HoD$xn4AYJ" role="2OqNvi">
                                                  <ref role="37wK5l" to="fxg7:~File.getName():java.lang.String" resolve="getName" />
                                                </node>
                                              </node>
                                              <node concept="2OqwBi" id="7HoD$xn4zlO" role="37vLTJ">
                                                <node concept="pncrf" id="7HoD$xn4zgi" role="2Oq$k0" />
                                                <node concept="3TrcHB" id="7HoD$xn4zMR" role="2OqNvi">
                                                  <ref role="3TsBF5" to="80av:7HoD$xn4yOc" resolve="fileNme" />
                                                </node>
                                              </node>
                                            </node>
                                          </node>
                                          <node concept="34ab3g" id="_IX99AFffD" role="3cqZAp">
                                            <property role="35gtTG" value="info" />
                                            <node concept="3cpWs3" id="_IX99AFfwg" role="34bqiv">
                                              <node concept="2OqwBi" id="_IX99AFfRF" role="3uHU7w">
                                                <node concept="pncrf" id="_IX99AFfMB" role="2Oq$k0" />
                                                <node concept="3TrcHB" id="_IX99AFg90" role="2OqNvi">
                                                  <ref role="3TsBF5" to="80av:_IX99AEBxF" resolve="fileName" />
                                                </node>
                                              </node>
                                              <node concept="Xl_RD" id="_IX99AFffF" role="3uHU7B">
                                                <property role="Xl_RC" value="saving to file" />
                                              </node>
                                            </node>
                                          </node>
                                          <node concept="3clFbH" id="_IX99AFfIK" role="3cqZAp" />
                                        </node>
                                      </node>
                                    </node>
                                  </node>
                                  <node concept="3clFbC" id="_IX99AEtOu" role="3clFbw">
                                    <node concept="10M0yZ" id="_IX99AEtOv" role="3uHU7w">
                                      <ref role="1PxDUh" to="dbrf:~JFileChooser" resolve="JFileChooser" />
                                      <ref role="3cqZAo" to="dbrf:~JFileChooser.APPROVE_OPTION" resolve="APPROVE_OPTION" />
                                    </node>
                                    <node concept="37vLTw" id="_IX99AEtOw" role="3uHU7B">
                                      <ref role="3cqZAo" node="_IX99AEtNZ" resolve="showOpenDialog" />
                                    </node>
                                  </node>
                                </node>
                              </node>
                            </node>
                          </node>
                        </node>
                      </node>
                    </node>
                  </node>
                </node>
                <node concept="3cpWs6" id="_IX99AEtO$" role="3cqZAp">
                  <node concept="37vLTw" id="_IX99AEtO_" role="3cqZAk">
                    <ref role="3cqZAo" node="_IX99AEtNA" resolve="button" />
                  </node>
                </node>
              </node>
            </node>
          </node>
          <node concept="3F0A7n" id="_IX99AFgxB" role="3EZMnx">
            <ref role="1NtTu8" to="80av:7HoD$xn4yOc" resolve="fileNme" />
          </node>
          <node concept="3F0ifn" id="_IX99AJOXl" role="3EZMnx">
            <property role="3F0ifm" value="seperated by" />
            <node concept="3Xmtl4" id="4Iz7iG42cI1" role="3F10Kt">
              <node concept="1wgc9g" id="4Iz7iG42cI8" role="3XvnJa">
                <ref role="1wgcnl" to="tpen:hgVS8CF" resolve="KeyWord" />
              </node>
            </node>
          </node>
          <node concept="3F0A7n" id="_IX99AJPod" role="3EZMnx">
            <ref role="1NtTu8" to="80av:_IX99AJOso" resolve="separator" />
          </node>
        </node>
        <node concept="3EZMnI" id="7HoD$xn1u5O" role="3EZMnx">
          <node concept="3F0ifn" id="7HoD$xn1ubO" role="3EZMnx">
            <property role="3F0ifm" value="all members :" />
            <node concept="3Xmtl4" id="4Iz7iG42cR2" role="3F10Kt">
              <node concept="1wgc9g" id="4Iz7iG42cR9" role="3XvnJa">
                <ref role="1wgcnl" to="tpen:hgVS8CF" resolve="KeyWord" />
              </node>
            </node>
          </node>
          <node concept="2iRfu4" id="7HoD$xn1u5P" role="2iSdaV" />
          <node concept="3F0A7n" id="7HoD$xn1l9x" role="3EZMnx">
            <ref role="1NtTu8" to="80av:7HoD$xn1kMN" resolve="exportAll" />
          </node>
        </node>
        <node concept="3F0ifn" id="7HoD$xn42Nz" role="3EZMnx">
          <property role="3F0ifm" value="" />
        </node>
      </node>
    </node>
    <node concept="3EZMnI" id="7HoD$xn4OT3" role="6VMZX">
      <node concept="2iRkQZ" id="7HoD$xn4OT4" role="2iSdaV" />
      <node concept="3EZMnI" id="7HoD$xn4I_8" role="3EZMnx">
        <node concept="2iRfu4" id="7HoD$xn4I_9" role="2iSdaV" />
        <node concept="3F0ifn" id="7HoD$xn4InA" role="3EZMnx">
          <property role="3F0ifm" value="file full path : " />
          <node concept="3Xmtl4" id="4Iz7iG42d05" role="3F10Kt">
            <node concept="1wgc9g" id="4Iz7iG42d0c" role="3XvnJa">
              <ref role="1wgcnl" to="tpen:hgVS8CF" resolve="KeyWord" />
            </node>
          </node>
        </node>
        <node concept="3F0A7n" id="7HoD$xn4IUV" role="3EZMnx">
          <ref role="1NtTu8" to="80av:_IX99AEBxF" resolve="fileName" />
        </node>
      </node>
      <node concept="3F0ifn" id="7HoD$xn4PeT" role="3EZMnx">
        <property role="3F0ifm" value="selected members :" />
        <node concept="3Xmtl4" id="4Iz7iG42d97" role="3F10Kt">
          <node concept="1wgc9g" id="4Iz7iG42d9c" role="3XvnJa">
            <ref role="1wgcnl" to="tpen:hgVS8CF" resolve="KeyWord" />
          </node>
        </node>
      </node>
      <node concept="1QoScp" id="7HoD$xn4Pf6" role="3EZMnx">
        <property role="1QpmdY" value="true" />
        <node concept="3F0ifn" id="7HoD$xn4Pf8" role="1QoS34">
          <property role="3F0ifm" value="ALL" />
          <node concept="3Xmtl4" id="4Iz7iG42di9" role="3F10Kt">
            <node concept="1wgc9g" id="4Iz7iG42die" role="3XvnJa">
              <ref role="1wgcnl" to="tpen:hgVS8CF" resolve="KeyWord" />
            </node>
          </node>
        </node>
        <node concept="pkWqt" id="7HoD$xn4Pf9" role="3e4ffs">
          <node concept="3clFbS" id="7HoD$xn4Pfb" role="2VODD2">
            <node concept="3clFbF" id="7HoD$xn4Pkk" role="3cqZAp">
              <node concept="2OqwBi" id="7HoD$xn4PoH" role="3clFbG">
                <node concept="pncrf" id="7HoD$xn4Pkj" role="2Oq$k0" />
                <node concept="3TrcHB" id="7HoD$xn4PBK" role="2OqNvi">
                  <ref role="3TsBF5" to="80av:7HoD$xn1kMN" resolve="exportAll" />
                </node>
              </node>
            </node>
          </node>
        </node>
        <node concept="3F2HdR" id="7HoD$xn4PM3" role="1QoVPY">
          <ref role="1NtTu8" to="80av:7HoD$xmMesq" />
        </node>
      </node>
    </node>
  </node>
  <node concept="24kQdi" id="7HoD$xmK9hH">
    <ref role="1XX52x" to="80av:7HoD$xmJ9nh" resolve="Exporter" />
    <node concept="3F0ifn" id="7HoD$xmKcSH" role="2wV5jI">
      <property role="3F0ifm" value="" />
    </node>
  </node>
  <node concept="24kQdi" id="7HoD$xmM81R">
    <ref role="1XX52x" to="80av:1ZzbrikhPdP" resolve="GroupItem" />
    <node concept="3F0A7n" id="7HoD$xmM82k" role="2wV5jI">
      <ref role="1NtTu8" to="tpck:h0TrG11" resolve="name" />
    </node>
  </node>
  <node concept="24kQdi" id="7HoD$xmMGJA">
    <ref role="1XX52x" to="80av:7HoD$xmMern" resolve="GroupItemReference" />
    <node concept="1iCGBv" id="7HoD$xmMGOe" role="2wV5jI">
      <ref role="1NtTu8" to="80av:7HoD$xmMerN" />
      <node concept="1sVBvm" id="7HoD$xmMGOg" role="1sWHZn">
        <node concept="3F0A7n" id="7HoD$xmMGOn" role="2wV5jI">
          <property role="1Intyy" value="true" />
          <ref role="1NtTu8" to="tpck:h0TrG11" resolve="name" />
        </node>
      </node>
    </node>
  </node>
  <node concept="24kQdi" id="7HoD$xn6j75">
    <ref role="1XX52x" to="80av:7HoD$xn6j2k" resolve="ExcelExporter" />
    <node concept="3EZMnI" id="7HoD$xn6jKZ" role="2wV5jI">
      <node concept="2iRkQZ" id="7HoD$xn6jL1" role="2iSdaV" />
      <node concept="3EZMnI" id="7HoD$xn6jL2" role="3EZMnx">
        <node concept="l2Vlx" id="7HoD$xn6jL3" role="2iSdaV" />
        <node concept="3EZMnI" id="7HoD$xn6jL4" role="3EZMnx">
          <node concept="2iRfu4" id="7HoD$xn6jL5" role="2iSdaV" />
          <node concept="3F0ifn" id="7HoD$xn6jL6" role="3EZMnx">
            <property role="3F0ifm" value="export" />
            <node concept="3Xmtl4" id="4Iz7iG42dum" role="3F10Kt">
              <node concept="1wgc9g" id="4Iz7iG42dur" role="3XvnJa">
                <ref role="1wgcnl" to="tpen:hgVS8CF" resolve="KeyWord" />
              </node>
            </node>
          </node>
          <node concept="1iCGBv" id="7HoD$xn6jL7" role="3EZMnx">
            <ref role="1NtTu8" to="80av:_IX99AD3F_" />
            <node concept="1sVBvm" id="7HoD$xn6jL8" role="1sWHZn">
              <node concept="3F0A7n" id="7HoD$xn6jL9" role="2wV5jI">
                <property role="1Intyy" value="true" />
                <ref role="1NtTu8" to="tpck:h0TrG11" resolve="name" />
              </node>
            </node>
          </node>
          <node concept="3F0ifn" id="7HoD$xn6jLa" role="3EZMnx">
            <property role="3F0ifm" value="to" />
            <node concept="3Xmtl4" id="4Iz7iG42dBs" role="3F10Kt">
              <node concept="1wgc9g" id="4Iz7iG42dBx" role="3XvnJa">
                <ref role="1wgcnl" to="tpen:hgVS8CF" resolve="KeyWord" />
              </node>
            </node>
          </node>
          <node concept="3gTLQM" id="7HoD$xn6jLb" role="3EZMnx">
            <node concept="3Fmcul" id="7HoD$xn6jLc" role="3FoqZy">
              <node concept="3clFbS" id="7HoD$xn6jLd" role="2VODD2">
                <node concept="3cpWs8" id="7HoD$xn6jLe" role="3cqZAp">
                  <node concept="3cpWsn" id="7HoD$xn6jLf" role="3cpWs9">
                    <property role="TrG5h" value="button" />
                    <node concept="3uibUv" id="7HoD$xn6jLg" role="1tU5fm">
                      <ref role="3uigEE" to="dbrf:~JButton" resolve="JButton" />
                    </node>
                    <node concept="2ShNRf" id="7HoD$xn6jLh" role="33vP2m">
                      <node concept="1pGfFk" id="7HoD$xn6jLi" role="2ShVmc">
                        <ref role="37wK5l" to="dbrf:~JButton.&lt;init&gt;(java.lang.String)" resolve="JButton" />
                        <node concept="Xl_RD" id="7HoD$xn6jLj" role="37wK5m">
                          <property role="Xl_RC" value="to" />
                        </node>
                      </node>
                    </node>
                  </node>
                </node>
                <node concept="3clFbF" id="7HoD$xn6jLk" role="3cqZAp">
                  <node concept="2OqwBi" id="7HoD$xn6jLl" role="3clFbG">
                    <node concept="37vLTw" id="7HoD$xn6jLm" role="2Oq$k0">
                      <ref role="3cqZAo" node="7HoD$xn6jLf" resolve="button" />
                    </node>
                    <node concept="liA8E" id="7HoD$xn6jLn" role="2OqNvi">
                      <ref role="37wK5l" to="dbrf:~AbstractButton.addActionListener(java.awt.event.ActionListener):void" resolve="addActionListener" />
                      <node concept="2ShNRf" id="7HoD$xn6jLo" role="37wK5m">
                        <node concept="YeOm9" id="7HoD$xn6jLp" role="2ShVmc">
                          <node concept="1Y3b0j" id="7HoD$xn6jLq" role="YeSDq">
                            <property role="2bfB8j" value="true" />
                            <ref role="37wK5l" to="e2lb:~Object.&lt;init&gt;()" resolve="Object" />
                            <ref role="1Y3XeK" to="8q6x:~ActionListener" resolve="ActionListener" />
                            <node concept="3Tm1VV" id="7HoD$xn6jLr" role="1B3o_S" />
                            <node concept="3clFb_" id="7HoD$xn6jLs" role="jymVt">
                              <property role="1EzhhJ" value="false" />
                              <property role="TrG5h" value="actionPerformed" />
                              <property role="DiZV1" value="false" />
                              <property role="IEkAT" value="false" />
                              <node concept="3Tm1VV" id="7HoD$xn6jLt" role="1B3o_S" />
                              <node concept="3cqZAl" id="7HoD$xn6jLu" role="3clF45" />
                              <node concept="37vLTG" id="7HoD$xn6jLv" role="3clF46">
                                <property role="TrG5h" value="p0" />
                                <node concept="3uibUv" id="7HoD$xn6jLw" role="1tU5fm">
                                  <ref role="3uigEE" to="8q6x:~ActionEvent" resolve="ActionEvent" />
                                </node>
                              </node>
                              <node concept="3clFbS" id="7HoD$xn6jLx" role="3clF47">
                                <node concept="3cpWs8" id="7HoD$xn6jLy" role="3cqZAp">
                                  <node concept="3cpWsn" id="7HoD$xn6jLz" role="3cpWs9">
                                    <property role="TrG5h" value="fileChooser" />
                                    <node concept="3uibUv" id="7HoD$xn6jL$" role="1tU5fm">
                                      <ref role="3uigEE" to="dbrf:~JFileChooser" resolve="JFileChooser" />
                                    </node>
                                    <node concept="2ShNRf" id="7HoD$xn6jL_" role="33vP2m">
                                      <node concept="1pGfFk" id="7HoD$xn6jLA" role="2ShVmc">
                                        <ref role="37wK5l" to="dbrf:~JFileChooser.&lt;init&gt;()" resolve="JFileChooser" />
                                      </node>
                                    </node>
                                  </node>
                                </node>
                                <node concept="3clFbF" id="7HoD$xn6jLB" role="3cqZAp">
                                  <node concept="2OqwBi" id="7HoD$xn6jLC" role="3clFbG">
                                    <node concept="37vLTw" id="7HoD$xn6jLD" role="2Oq$k0">
                                      <ref role="3cqZAo" node="7HoD$xn6jLz" resolve="fileChooser" />
                                    </node>
                                    <node concept="liA8E" id="7HoD$xn6jLE" role="2OqNvi">
                                      <ref role="37wK5l" to="dbrf:~JFileChooser.setDialogType(int):void" resolve="setDialogType" />
                                      <node concept="10M0yZ" id="7HoD$xn6jLF" role="37wK5m">
                                        <ref role="1PxDUh" to="dbrf:~JFileChooser" resolve="JFileChooser" />
                                        <ref role="3cqZAo" to="dbrf:~JFileChooser.SAVE_DIALOG" resolve="SAVE_DIALOG" />
                                      </node>
                                    </node>
                                  </node>
                                </node>
                                <node concept="3cpWs8" id="7HoD$xn6jLG" role="3cqZAp">
                                  <node concept="3cpWsn" id="7HoD$xn6jLH" role="3cpWs9">
                                    <property role="TrG5h" value="showOpenDialog" />
                                    <node concept="10Oyi0" id="7HoD$xn6jLI" role="1tU5fm" />
                                    <node concept="2OqwBi" id="7HoD$xn6jLJ" role="33vP2m">
                                      <node concept="37vLTw" id="7HoD$xn6jLK" role="2Oq$k0">
                                        <ref role="3cqZAo" node="7HoD$xn6jLz" resolve="fileChooser" />
                                      </node>
                                      <node concept="liA8E" id="7HoD$xn6jLL" role="2OqNvi">
                                        <ref role="37wK5l" to="dbrf:~JFileChooser.showSaveDialog(java.awt.Component):int" resolve="showSaveDialog" />
                                        <node concept="10Nm6u" id="7HoD$xn6jLM" role="37wK5m" />
                                      </node>
                                    </node>
                                  </node>
                                </node>
                                <node concept="3clFbJ" id="7HoD$xn6jLN" role="3cqZAp">
                                  <node concept="3clFbS" id="7HoD$xn6jLO" role="3clFbx">
                                    <node concept="1QHqEO" id="7HoD$xn6jLP" role="3cqZAp">
                                      <node concept="1QHqEC" id="7HoD$xn6jLQ" role="1QHqEI">
                                        <node concept="3clFbS" id="7HoD$xn6jLR" role="1bW5cS">
                                          <node concept="3clFbF" id="7HoD$xn6jLS" role="3cqZAp">
                                            <node concept="37vLTI" id="7HoD$xn6jLT" role="3clFbG">
                                              <node concept="2OqwBi" id="7HoD$xn6jLU" role="37vLTx">
                                                <node concept="2OqwBi" id="7HoD$xn6jLV" role="2Oq$k0">
                                                  <node concept="37vLTw" id="7HoD$xn6jLW" role="2Oq$k0">
                                                    <ref role="3cqZAo" node="7HoD$xn6jLz" resolve="fileChooser" />
                                                  </node>
                                                  <node concept="liA8E" id="7HoD$xn6jLX" role="2OqNvi">
                                                    <ref role="37wK5l" to="dbrf:~JFileChooser.getSelectedFile():java.io.File" resolve="getSelectedFile" />
                                                  </node>
                                                </node>
                                                <node concept="liA8E" id="7HoD$xn6jLY" role="2OqNvi">
                                                  <ref role="37wK5l" to="fxg7:~File.toString():java.lang.String" resolve="toString" />
                                                </node>
                                              </node>
                                              <node concept="2OqwBi" id="7HoD$xn6jLZ" role="37vLTJ">
                                                <node concept="pncrf" id="7HoD$xn6jM0" role="2Oq$k0" />
                                                <node concept="3TrcHB" id="7HoD$xn6jM1" role="2OqNvi">
                                                  <ref role="3TsBF5" to="80av:7HoD$xn6j2l" resolve="fileName" />
                                                </node>
                                              </node>
                                            </node>
                                          </node>
                                          <node concept="3clFbF" id="7HoD$xn6jM2" role="3cqZAp">
                                            <node concept="37vLTI" id="7HoD$xn6jM3" role="3clFbG">
                                              <node concept="2OqwBi" id="7HoD$xn6jM4" role="37vLTx">
                                                <node concept="2OqwBi" id="7HoD$xn6jM5" role="2Oq$k0">
                                                  <node concept="37vLTw" id="7HoD$xn6jM6" role="2Oq$k0">
                                                    <ref role="3cqZAo" node="7HoD$xn6jLz" resolve="fileChooser" />
                                                  </node>
                                                  <node concept="liA8E" id="7HoD$xn6jM7" role="2OqNvi">
                                                    <ref role="37wK5l" to="dbrf:~JFileChooser.getSelectedFile():java.io.File" resolve="getSelectedFile" />
                                                  </node>
                                                </node>
                                                <node concept="liA8E" id="7HoD$xn6jM8" role="2OqNvi">
                                                  <ref role="37wK5l" to="fxg7:~File.getName():java.lang.String" resolve="getName" />
                                                </node>
                                              </node>
                                              <node concept="2OqwBi" id="7HoD$xn6jM9" role="37vLTJ">
                                                <node concept="pncrf" id="7HoD$xn6jMa" role="2Oq$k0" />
                                                <node concept="3TrcHB" id="7HoD$xn6jMb" role="2OqNvi">
                                                  <ref role="3TsBF5" to="80av:7HoD$xn6j2o" resolve="fileNme" />
                                                </node>
                                              </node>
                                            </node>
                                          </node>
                                          <node concept="34ab3g" id="7HoD$xn6jMc" role="3cqZAp">
                                            <property role="35gtTG" value="info" />
                                            <node concept="3cpWs3" id="7HoD$xn6jMd" role="34bqiv">
                                              <node concept="2OqwBi" id="7HoD$xn6jMe" role="3uHU7w">
                                                <node concept="pncrf" id="7HoD$xn6jMf" role="2Oq$k0" />
                                                <node concept="3TrcHB" id="7HoD$xn6jMg" role="2OqNvi">
                                                  <ref role="3TsBF5" to="80av:7HoD$xn6j2l" resolve="fileName" />
                                                </node>
                                              </node>
                                              <node concept="Xl_RD" id="7HoD$xn6jMh" role="3uHU7B">
                                                <property role="Xl_RC" value="saving to file" />
                                              </node>
                                            </node>
                                          </node>
                                          <node concept="3clFbH" id="7HoD$xn6jMi" role="3cqZAp" />
                                        </node>
                                      </node>
                                    </node>
                                  </node>
                                  <node concept="3clFbC" id="7HoD$xn6jMj" role="3clFbw">
                                    <node concept="10M0yZ" id="7HoD$xn6jMk" role="3uHU7w">
                                      <ref role="1PxDUh" to="dbrf:~JFileChooser" resolve="JFileChooser" />
                                      <ref role="3cqZAo" to="dbrf:~JFileChooser.APPROVE_OPTION" resolve="APPROVE_OPTION" />
                                    </node>
                                    <node concept="37vLTw" id="7HoD$xn6jMl" role="3uHU7B">
                                      <ref role="3cqZAo" node="7HoD$xn6jLH" resolve="showOpenDialog" />
                                    </node>
                                  </node>
                                </node>
                              </node>
                            </node>
                          </node>
                        </node>
                      </node>
                    </node>
                  </node>
                </node>
                <node concept="3cpWs6" id="7HoD$xn6jMm" role="3cqZAp">
                  <node concept="37vLTw" id="7HoD$xn6jMn" role="3cqZAk">
                    <ref role="3cqZAo" node="7HoD$xn6jLf" resolve="button" />
                  </node>
                </node>
              </node>
            </node>
          </node>
          <node concept="3F0A7n" id="7HoD$xn6jMo" role="3EZMnx">
            <ref role="1NtTu8" to="80av:7HoD$xn6j2o" resolve="fileNme" />
          </node>
          <node concept="3F0ifn" id="7HoD$xn6jMp" role="3EZMnx" />
        </node>
        <node concept="3EZMnI" id="7HoD$xn6jMr" role="3EZMnx">
          <node concept="3F0ifn" id="7HoD$xn6jMs" role="3EZMnx">
            <property role="3F0ifm" value="all members :" />
            <node concept="3Xmtl4" id="4Iz7iG42dKB" role="3F10Kt">
              <node concept="1wgc9g" id="4Iz7iG42dKI" role="3XvnJa">
                <ref role="1wgcnl" to="tpen:hgVS8CF" resolve="KeyWord" />
              </node>
            </node>
          </node>
          <node concept="2iRfu4" id="7HoD$xn6jMt" role="2iSdaV" />
          <node concept="3F0A7n" id="7HoD$xn6jMu" role="3EZMnx">
            <ref role="1NtTu8" to="80av:7HoD$xn6j2n" resolve="exportAll" />
          </node>
        </node>
        <node concept="3F0ifn" id="7HoD$xn6jMv" role="3EZMnx">
          <property role="3F0ifm" value="" />
        </node>
      </node>
    </node>
    <node concept="3EZMnI" id="7HoD$xn6m8a" role="6VMZX">
      <node concept="2iRkQZ" id="7HoD$xn6m8b" role="2iSdaV" />
      <node concept="3EZMnI" id="7HoD$xn6m8c" role="3EZMnx">
        <node concept="2iRfu4" id="7HoD$xn6m8d" role="2iSdaV" />
        <node concept="3F0ifn" id="7HoD$xn6m8e" role="3EZMnx">
          <property role="3F0ifm" value="file full path : " />
          <node concept="3Xmtl4" id="4Iz7iG42dTQ" role="3F10Kt">
            <node concept="1wgc9g" id="4Iz7iG42dTX" role="3XvnJa">
              <ref role="1wgcnl" to="tpen:hgVS8CF" resolve="KeyWord" />
            </node>
          </node>
        </node>
        <node concept="3F0A7n" id="7HoD$xn6m8f" role="3EZMnx">
          <ref role="1NtTu8" to="80av:7HoD$xn6j2l" resolve="fileName" />
        </node>
      </node>
      <node concept="3F0ifn" id="7HoD$xn6m8g" role="3EZMnx">
        <property role="3F0ifm" value="selected members :" />
        <node concept="3Xmtl4" id="4Iz7iG42e37" role="3F10Kt">
          <node concept="1wgc9g" id="4Iz7iG42e3e" role="3XvnJa">
            <ref role="1wgcnl" to="tpen:hgVS8CF" resolve="KeyWord" />
          </node>
        </node>
      </node>
      <node concept="1QoScp" id="7HoD$xn6m8h" role="3EZMnx">
        <property role="1QpmdY" value="true" />
        <node concept="3F0ifn" id="7HoD$xn6m8i" role="1QoS34">
          <property role="3F0ifm" value="ALL" />
          <node concept="3Xmtl4" id="4Iz7iG42ecn" role="3F10Kt">
            <node concept="1wgc9g" id="4Iz7iG42ecs" role="3XvnJa">
              <ref role="1wgcnl" to="tpen:hgVS8CF" resolve="KeyWord" />
            </node>
          </node>
        </node>
        <node concept="pkWqt" id="7HoD$xn6m8j" role="3e4ffs">
          <node concept="3clFbS" id="7HoD$xn6m8k" role="2VODD2">
            <node concept="3clFbF" id="7HoD$xn6m8l" role="3cqZAp">
              <node concept="2OqwBi" id="7HoD$xn6m8m" role="3clFbG">
                <node concept="pncrf" id="7HoD$xn6m8n" role="2Oq$k0" />
                <node concept="3TrcHB" id="7HoD$xn6m8o" role="2OqNvi">
                  <ref role="3TsBF5" to="80av:7HoD$xn6j2n" resolve="exportAll" />
                </node>
              </node>
            </node>
          </node>
        </node>
        <node concept="3F2HdR" id="7HoD$xn6m8p" role="1QoVPY">
          <ref role="1NtTu8" to="80av:7HoD$xmMesq" />
        </node>
      </node>
    </node>
  </node>
  <node concept="2ABfQD" id="7HoD$xnixZt">
    <property role="TrG5h" value="sampleTests" />
    <node concept="2BsEeg" id="7HoD$xniy5J" role="2ABdcP">
      <property role="2gpH_U" value="true" />
      <property role="TrG5h" value="RegExpPresenter" />
      <property role="2BUmq6" value="Presents regular expressions in text form instead of explicit pattern form" />
    </node>
  </node>
  <node concept="24kQdi" id="7HoD$xniE5c">
    <ref role="1XX52x" to="80av:66tNEy7MCIO" resolve="Member" />
    <node concept="2aJ2om" id="7HoD$xniEnY" role="CpUAK">
      <ref role="2$4xQ3" node="7HoD$xniy5J" resolve="RegExpPresenter" />
    </node>
    <node concept="3EZMnI" id="7HoD$xniEv5" role="2wV5jI">
      <node concept="3F0A7n" id="7HoD$xniEv6" role="3EZMnx">
        <ref role="1NtTu8" to="tpck:h0TrG11" resolve="name" />
      </node>
      <node concept="3F0ifn" id="7HoD$xniEv7" role="3EZMnx">
        <property role="3F0ifm" value="as" />
      </node>
      <node concept="3F0ifn" id="7HoD$xniEv8" role="3EZMnx">
        <property role="3F0ifm" value="" />
      </node>
      <node concept="3F1sOY" id="3SMMV5ZS19u" role="3EZMnx">
        <ref role="1NtTu8" to="tpee:4VkOLwjf83e" />
      </node>
      <node concept="3F0ifn" id="7HoD$xniEvc" role="3EZMnx">
        <property role="3F0ifm" value="@" />
      </node>
      <node concept="3F0ifn" id="7HoD$xniEvd" role="3EZMnx">
        <property role="3F0ifm" value="[" />
      </node>
      <node concept="3F0A7n" id="7HoD$xniEve" role="3EZMnx">
        <ref role="1NtTu8" to="80av:1Zzbrikhnbr" resolve="index" />
      </node>
      <node concept="3F0ifn" id="7HoD$xniEvf" role="3EZMnx">
        <property role="3F0ifm" value="}" />
      </node>
      <node concept="3F0ifn" id="7HoD$xniEvg" role="3EZMnx">
        <property role="3F0ifm" value="capture " />
      </node>
      <node concept="3F0A7n" id="7HoD$xniEvh" role="3EZMnx">
        <ref role="1NtTu8" to="80av:1ZzbrikhPg2" resolve="pattern" />
      </node>
      <node concept="2iRfu4" id="7HoD$xniEvi" role="2iSdaV" />
    </node>
    <node concept="3EZMnI" id="3SMMV5ZScZd" role="6VMZX">
      <node concept="2iRkQZ" id="3SMMV5ZScZe" role="2iSdaV" />
      <node concept="3F0ifn" id="3SMMV5ZScZb" role="3EZMnx">
        <property role="3F0ifm" value="initializer" />
      </node>
      <node concept="3F1sOY" id="3SMMV5ZScZm" role="3EZMnx">
        <ref role="1NtTu8" to="tpee:fz3vP1I" />
      </node>
    </node>
  </node>
  <node concept="24kQdi" id="bwQnMm_b9m">
    <ref role="1XX52x" to="80av:bwQnMm_b8l" resolve="VariableRefExtension" />
    <node concept="1iCGBv" id="bwQnMm_b9o" role="2wV5jI">
      <ref role="1NtTu8" to="tpee:fzcqZ_w" />
      <node concept="1sVBvm" id="bwQnMm_b9q" role="1sWHZn">
        <node concept="PMmxH" id="bwQnMm_b9x" role="2wV5jI">
          <ref role="PMmxG" to="tpen:hcE9nLY" resolve="VariableDeclaration_NameCellComponent" />
        </node>
      </node>
    </node>
  </node>
  <node concept="24kQdi" id="74LOPGM6KPf">
    <ref role="1XX52x" to="80av:74LOPGM6KOt" resolve="instanceMethodDeclarationEx" />
    <node concept="3EZMnI" id="74LOPGM6KPh" role="2wV5jI">
      <node concept="2iRkQZ" id="74LOPGM6KPi" role="2iSdaV" />
      <node concept="PMmxH" id="74LOPGM6KPn" role="3EZMnx">
        <ref role="PMmxG" to="tpen:5UYpxeVafB6" resolve="BaseMethodDeclaration_BodyComponent" />
      </node>
    </node>
  </node>
  <node concept="24kQdi" id="4Iz7iG3JYy7">
    <ref role="1XX52x" to="80av:4Iz7iG3JYy5" resolve="instanceMethodDeclarationExReference" />
    <node concept="3EZMnI" id="4Iz7iG3JZ2G" role="2wV5jI">
      <node concept="2iRkQZ" id="4Iz7iG3JZ2H" role="2iSdaV" />
      <node concept="3F1sOY" id="4Iz7iG3JZ2M" role="3EZMnx">
        <ref role="1NtTu8" to="80av:4Iz7iG3JZ1T" />
      </node>
    </node>
  </node>
</model>

